{
	"id": "S3259039",
	"gaID": "90441544.1605693263",
	"businessName": "Vodafone Europe B.V.",
	"kvkNumber": 27166573,
	"address": {
		"street": "Stieltjesweg",
		"houseNumber": "516",
		"houseNumberAddition": "B",
		"postcode": "2628CK",
		"city": "Delft",
		"country": "NL"
	},
	"contact": {
		"firstName": "Christian",
		"lastName": "Krebs",
		"email": "krebs@hacknet.dk",
		"phone": "555-45895689"
	},
	"results": [
		{
			"id": "company",
			"text": "Van welk bedrijf bent u?",
			"answer": "S1238422"
		},
		{
			"id": "locations",
			"text": "Hoeveel locaties heeft uw bedrijf?",
			"answer": "1"
		},
		{
			"id": "floors",
			"text": "Hoeveel verdiepingen heeft het hoofdkantoor?",
			"answer": "2"
		},
		{
			"id": "employees",
			"text": "Hoeveel medewerkers heeft uw bedrijf?",
			"answer": "24"
		},
		{
			"id": "office-employees",
			"text": "Hoeveel medewerkers daarvan werken er vast op kantoor?",
			"answer": "16"
		},
		{
			"id": "remote-employees",
			"text": "En hoeveel werken er dan thuis of bij klanten?",
			"answer": "8"
		}
	],
	"statements": [
		{
			"id": "statement-1",
			"text": "We zijn extreem afhankelijk van stabiel internet. Uitval heeft voor ons serieuze gevolgen.",
			"answer": "1"
		},
		{
			"id": "statement-2",
			"text": "Bij internet uitval wil ik doorwerken op een back-up verbinding",
			"answer": "1"
		},
		{
			"id": "statement-3",
			"text": "Mijn medewerkers versturen veel zware bestanden tegelijk en of maken gebruik van videobellen.",
			"answer": "0"
		},
		{
			"id": "statement-4",
			"text": "Het beheer van ons wifi-netwerk geef ik liever uit handen.",
			"answer": "1"
		},
		{
			"id": "statement-5",
			"text": "Ook onderweg of thuis wil ik dat we ons vaste nummer(s) mobiel kunnen opnemen.",
			"answer": "-1"
		},
		{
			"id": "statement-6",
			"text": "Mijn medewerkers moeten hun telefonische beschikbaarheid kunnen aanpassen.",
			"answer": "1"
		},
		{
			"id": "statement-7",
			"text": "Als we klanten bellen, vind ik het prettig als zij een vast zakelijk nummer zien en niet een 06 - nummer.",
			"answer": "1"
		},
		{
			"id": "statement-8",
			"text": "We hebben, naast laptops en mobiele telefoons, veel andere apparaten die met het internet verbonden zijn. (Denk aan machines, vervoersmiddelen, sensoren of beveiligingscameras).",
			"answer": "1"
		},
		{
			"id": "statement-9",
			"text": "We willen moeiteloos vanuit huis kunnen samenwerken en veilige toegang hebben tot onze bestanden.",
			"answer": "0"
		},
		{
			"id": "statement-10",
			"text": "Onbeperkt bellen en data voor een vast bedrag spreekt mij aan.",
			"answer": "1"
		},
		{
			"id": "statement-11",
			"text": "We werken ook buiten de EU.",
			"answer": "-1"
		},
		{
			"id": "statement-12",
			"text": "We werken met zeer gevoelige informatie, bijv. financi\u00eble gegevens, vertrouwelijke klantdata, pati\u00ebntendossiers.",
			"answer": "0"
		},
		{
			"id": "statement-13",
			"text": "Wilt u \u00e9\u00e9n databundel voor uw hele bedrijf?",
			"answer": "0"
		},
		{
			"id": "statement-14",
			"text": "Zijn al uw apparaten (mobiel en laptops) beschermd tegen virussen?",
			"answer": "0"
		}
	],
	"recommendation": {
		"initial": ["one-net", "multi-wifi", "service-level-24-7", "internet-fiber", "flex-mobile", "4g-backup"],
		"modified": ["internet-coax", "one-net", "one-mobile", "service-level-24-7", "internet-fiber", "flex-mobile"]
	},
	"requestType": "quote-only",
	"timeSlot": "2022-07-05 16:19:20"
}
