{
	"id": "ttt-ggg-kkk",
	"href": "https://ncso-tmf641-nbi/serviceOrder/b0d13c8a-5d77-4e19-96f1-2405ee2f34dg",
	"externalId": "COM",
	"priority": "1",
	"description": "Internet Modem Only Service Order",
	"category": "Internet Modem Only Service",
	"state": "acknowledged",
	"orderDate": "2022-02-08T10:37:15.97221Z",
	"startDate": "{{Timestamp}}",
	"@type": "standard",
	"orderItem": [
		{
			"id": "1",
			"action": "delete",
			"state": "acknowledged",
			"@type": "standard",
			"service": {
				"id": "11-22-33",
				"name": "Internet Modem Only Service",
				"@type": "service",
				"serviceSpecification": {
					"id": "bdab731e-d5de-4135-8849-5c724ea01041",
					"invariantID": "930d7161-0eb8-444f-8d11-5971812246d5",
					"version": "1.0.0",
					"name": "Internet Modem Only Service",
					"@type": "ServiceSpecification"
				}
			}
		}
	]
}
