{
	"eventId": "deff54ee-ba37-4dba-b1c9-1fe1e554a4e1",
	"eventTime": "2022-02-08T11:30:15.97221Z",
	"eventType": "ServiceOrderStateChangeNotification",
	"event": {
		"serviceOrder": {
			"id": "b0d13c8a-5d77-4e19-96f1-2405ee2fe291",
			"href": "https://ncso-tmf641-nbi/serviceOrder/b0d13c8a-5d77-4e19-96f1-2405ee2fe291",
			"externalId": "COM",
			"priority": "1",
			"description": "Generic Tenant Service Order",
			"category": "Generic Tenant Service",
			"state": "completed",
			"orderDate": "2022-02-08T10:37:15.97221Z",
			"startDate": "2022-02-08T10:37:15.97221Z",
			"completionDate": "2022-02-08T10:37:15.97221Z",
			"@type": "standard",
			"orderItem": [
				{
					"id": "1",
					"action": "add",
					"state": "completed",
					"@type": "standard",
					"service": {
						"id": "11111-22222",
						"name": "Generic Tenant Service",
						"serviceState": "active",
						"@type": "service",
						"serviceCharacteristic": [
							{
								"name": "sourceSystem",
								"valueType": "string",
								"value": {
									"@type": "string",
									"sourceSystem": "COM"
								}
							},
							{
								"name": "tenantName",
								"valueType": "string",
								"value": {
									"@type": "string",
									"tenantName": "{{Tenant Name}}"
								}
							},
							{
								"name": "tenantContactName",
								"valueType": "string",
								"value": {
									"@type": "string",
									"tenantContactName": "{{Tenant Contact}}"
								}
							},
							{
								"name": "tenantContactPhone",
								"valueType": "string",
								"value": {
									"@type": "string",
									"tenantContactPhone": "{{Tenant Contact Phone}}"
								}
							},
							{
								"name": "tenantContactEmail",
								"valueType": "string",
								"value": {
									"@type": "string",
									"tenantContactEmail": "{{Tenant Contact Email}}"
								}
							}
						],
						"serviceSpecification": {
							"id": "51e9dcdd-96c7-4e83-8c26-2b0950955f5a",
							"invariantID": "cf68cc30-7c13-46ca-8493-1794d9d91e1e",
							"version": "12.0.0",
							"name": "Generic Tenant Service",
							"@type": "ServiceSpecification"
						}
					}
				}
			]
		}
	}
}
