{
    "status":200,
    "data":[
        {
            "defaultBillingCustomerId" : [
                {
                    "defaultBillingCustomerId" :"===================================================================================================Some string which is longer than 255 characters================================================================================================================",
                    "isHomeAccount" : false
                }
            ]
        }
    ],
    "error":[]
}