{"status":200,"data":[{
"orderOutputData" : {
"informationMessages" : [ {
"messageID" : "COMPATIBILITY_VALIDATION",
"messageSeverity" : {
"value" : 0
},
"messageText" : "Compatibility validation completed successfully"
}, {
"messageID" : "OFFER_ELIGIBILITY_VALIDATION",
"messageSeverity" : {
"value" : 0
},
"messageText" : "Eligible"
}, {
"messageID" : "OPERATION_ELIGIBILITY_VALIDATION",
"messageSeverity" : {
"value" : 0
},
"messageText" : "Operation eligibility validation passed."
}, {
"messageID" : "PORT_IN_VALIDATION",
"messageSeverity" : {
"value" : -1
},
"messageText" : "The check did not run because it is not matching TBVALIDATION_REF_TABLE."
}, {
"messageID" : "RETENTION_VALIDATION",
"messageSeverity" : {
"value" : -1
},
"messageText" : "The check did not run because it is not matching TBVALIDATION_REF_TABLE."
}, {
"messageSeverity" : {
"value" : -1
},
"messageText" : "The check did not run because it is not matching TBVALIDATION_REF_TABLE."
}, {
"messageID" : "CUSTOMER_LEVEL_HW_CREDIT_CHECK",
"messageSeverity" : {
"value" : -1
},
"messageText" : "The check did not run because it is not matching TBVALIDATION_REF_TABLE."
}, {
"messageID" : "CREDIT_VETTING_VALIDATION",
"messageSeverity" : {
"value" : 0
},
"messageText" : "Credit Vetting Request passed."
} ],
"createdOrderData" : {
"provideOrderActionsSummary" : [ {
"implementedOffer" : {
"childImplementedProducts" : [ {
"childImplementedProducts" : [ {
"implementedAttributes" : [ {
"catalogAttribute" : {
"catalogAttributeID" : 9122579,
"catalogAttributeDetails" : {
"name" : "Contract Offer Group",
"description" : "Offer group as agreed in the Contract",
"affectsPrice" : false,
"isVisible" : false,
"attributeDataType" : {
"name" : "AbsString",
"attributeDataTypeDetails" : {
"dataType" : 1,
"type" : 0,
"dataSize" : 256
}
},
"propertyNameX1" : "Contract_Offer_Group"
}
},
"selectedValue" : "All Groups"
}, {
"catalogAttribute" : {
"catalogAttributeID" : 4110339,
"catalogAttributeDetails" : {
"name" : "Contract Nummer",
"description" : "Bevat het nummer van het contract welke gebruikt wordt als Service ID voor het enterprise product",
"affectsPrice" : false,
"isVisible" : false,
"attributeDataType" : {
"name" : "AbsString",
"attributeDataTypeDetails" : {
"dataType" : 1,
"type" : 0,
"dataSize" : 256
}
},
"propertyNameX1" : "Contract_Number"
}
},
"selectedValue" : "VZ-2020-00007461"
}, {
"catalogAttribute" : {
"catalogAttributeID" : 4110959,
"catalogAttributeDetails" : {
"name" : "Contract Type",
"description" : "Geeft aan of het contract Acquisitie of Retentie is. Attribuut wordt gebruikt voor 3TM reporting.",
"affectsPrice" : false,
"isVisible" : false,
"attributeDataType" : {
"name" : "AbsContractType_Framework",
"attributeDataTypeDetails" : {
"dataType" : 1,
"type" : 2,
"dataSize" : 256,
"validValues" : [ {
"code" : "Acquisition",
"name" : "Acquisition"
}, {
"code" : "Retention",
"name" : "Retention"
} ]
}
},
"propertyNameX1" : "Contract_Type"
}
},
"selectedValue" : "Acquisition"
}, {
"catalogAttribute" : {
"catalogAttributeID" : 4110359,
"catalogAttributeDetails" : {
"name" : "Contract URL link",
"description" : "Contains link to the contract document URL.",
"affectsPrice" : false,
"isVisible" : false,
"attributeDataType" : {
"name" : "AbsString",
"attributeDataTypeDetails" : {
"dataType" : 1,
"type" : 0,
"dataSize" : 256
}
},
"propertyNameX1" : "Contract_URL_Link"
}
}
}, {
"catalogAttribute" : {
"catalogAttributeID" : 687065,
"catalogAttributeDetails" : {
"name" : "Contract Commencement Date",
"description" : "Datum waarop contract ondertekend is",
"affectsPrice" : false,
"isVisible" : false,
"attributeDataType" : {
"name" : "AbsDate",
"attributeDataTypeDetails" : {
"dataType" : 3,
"type" : 0,
"dataSize" : 256
}
},
"propertyNameX1" : "Contract_Sign_Date"
}
},
"selectedValue" : "07/20/2020 00:00:00"
}, {
"catalogAttribute" : {
"catalogAttributeID" : 4110349,
"catalogAttributeDetails" : {
"name" : "Contract Omschrijving",
"description" : "Free text veld voor contract omschrijving. De omschrijving wordt weergegeven wanneer een gebruiker wordt toegevoegd aan een framework agreement.",
"affectsPrice" : false,
"isVisible" : false,
"attributeDataType" : {
"name" : "AbsString",
"attributeDataTypeDetails" : {
"dataType" : 1,
"type" : 0,
"dataSize" : 256
}
},
"propertyNameX1" : "Contract_Description"
}
},
"selectedValue" : "2020-07-452948 + 24 Months"
}, {
"catalogAttribute" : {
"catalogAttributeID" : 4110329,
"catalogAttributeDetails" : {
"name" : "Document Type",
"description" : "Describes the type of the document.",
"affectsPrice" : false,
"defaultValue" : "Agreement",
"isVisible" : false,
"attributeDataType" : {
"name" : "AbsContractDocumentType",
"attributeDataTypeDetails" : {
"dataType" : 1,
"type" : 2,
"dataSize" : 256,
"validValues" : [ {
"code" : "Addendum",
"name" : "Addendum"
}, {
"code" : "Agreement",
"name" : "Agreement"
}, {
"code" : "Framework",
"name" : "Framework"
} ]
}
},
"propertyNameX1" : "Document_Type"
}
},
"selectedValue" : "Agreement"
}, {
"catalogAttribute" : {
"catalogAttributeID" : 4110539,
"catalogAttributeDetails" : {
"name" : "Benchmark Due Date",
"description" : "Contains the agreed date for performing the benchmark validation",
"affectsPrice" : false,
"isVisible" : false,
"attributeDataType" : {
"name" : "AbsDate",
"attributeDataTypeDetails" : {
"dataType" : 3,
"type" : 0,
"dataSize" : 256
}
},
"propertyNameX1" : "Benchmark_Due_Date"
}
}
}, {
"catalogAttribute" : {
"catalogAttributeID" : 4110369,
"catalogAttributeDetails" : {
"name" : "Contract SLA",
"description" : "Indicatie van Contract Service Level Agreement voor Enterprise",
"affectsPrice" : false,
"defaultValue" : "None",
"isVisible" : false,
"attributeDataType" : {
"name" : "AbsServiceLevel",
"attributeDataTypeDetails" : {
"dataType" : 1,
"type" : 2,
"dataSize" : 256,
"validValues" : [ {
"code" : "BNZE",
"name" : "Bronze"
}, {
"code" : "GOLD",
"name" : "Gold"
}, {
"code" : "None",
"name" : "None"
}, {
"code" : "SILV",
"name" : "Silver"
}, {
"code" : "Standard",
"name" : "Standard"
} ]
}
},
"propertyNameX1" : "Contract_SLA"
}
},
"selectedValue" : "None"
}, {
"catalogAttribute" : {
"catalogAttributeID" : 4110969,
"catalogAttributeDetails" : {
"name" : "SLA Description",
"description" : "Free text voor weergave van het overeengekomen framework SLA level. Text wordt in SFDC vastgelegd tijdens het aanmaken van het contract",
"affectsPrice" : false,
"isVisible" : false,
"attributeDataType" : {
"name" : "AbsString",
"attributeDataTypeDetails" : {
"dataType" : 1,
"type" : 0,
"dataSize" : 256
}
},
"propertyNameX1" : "SLA_Description"
}
}
}, {
"catalogAttribute" : {
"catalogAttributeID" : 4110399,
"catalogAttributeDetails" : {
"name" : "Number of active subscriptions exceed the contract",
"description" : "Contains the additional number of active subscriber that can be added on top of the 'Minimum number of active subscriptions' without a need to set a new contract",
"affectsPrice" : false,
"isVisible" : false,
"attributeDataType" : {
"name" : "AbsRangePositive",
"attributeDataTypeDetails" : {
"dataType" : 4,
"type" : 1,
"dataSize" : 10,
"ranges" : [ {
"minimum" : 1.0,
"maximum" : 99999.0
} ]
}
},
"propertyNameX1" : "Number_of_active_subscriptions_exceed_the_contract"
}
}
}, {
"catalogAttribute" : {
"catalogAttributeID" : 4110529,
"catalogAttributeDetails" : {
"name" : "Benchmark Possibility",
"description" : "Indicates whether to check that prices are still competitive and change to a better pricing scheme if they are not",
"affectsPrice" : false,
"isVisible" : false,
"attributeDataType" : {
"name" : "AbsBenchmarkPossibility",
"attributeDataTypeDetails" : {
"dataType" : 1,
"type" : 2,
"dataSize" : 256,
"validValues" : [ {
"code" : "Bespoke",
"name" : "Bespoke"
}, {
"code" : "External",
"name" : "External"
}, {
"code" : "Internal",
"name" : "Internal"
} ]
}
},
"propertyNameX1" : "Benchmark_Possibility"
}
}
}, {
"catalogAttribute" : {
"catalogAttributeID" : 4110409,
"catalogAttributeDetails" : {
"name" : "Number of active subscribers that can be cancelled",
"description" : "Contains the total number of subscribers that can be cancelled without triggering a penalty",
"affectsPrice" : false,
"isVisible" : false,
"attributeDataType" : {
"name" : "AbsRangePositive",
"attributeDataTypeDetails" : {
"dataType" : 4,
"type" : 1,
"dataSize" : 10,
"ranges" : [ {
"minimum" : 1.0,
"maximum" : 99999.0
} ]
}
},
"propertyNameX1" : "Number_of_active_subscribers_that_can_be_cancelled"
}
}
}, {
"catalogAttribute" : {
"catalogAttributeID" : 7339153,
"catalogAttributeDetails" : {
"name" : "Active subscribers that can be cancelled unit type",
"description" : "Contains the unit type of subscribers that can be cancelled without triggering a penalty.",
"affectsPrice" : false,
"defaultValue" : "NUMBER",
"isVisible" : false,
"attributeDataType" : {
"name" : "DynSubscribers_Definition_on_FWA",
"attributeDataTypeDetails" : {
"dataType" : 1,
"type" : 2,
"dataSize" : 256,
"validValues" : [ {
"code" : "NUMBER",
"name" : "Number"
}, {
"code" : "PERCENTAGE",
"name" : "Percentage"
} ]
}
},
"propertyNameX1" : "Active_subscribers_for_cancelled_unit_type"
}
},
"selectedValue" : "NUMBER"
}, {
"catalogAttribute" : {
"catalogAttributeID" : 7339183,
"catalogAttributeDetails" : {
"name" : "Maximum of suspended subscriptions Product name 1",
"description" : "Free text attribute Contains the product name of the agreed number of suspended subscriptions that corporate committed to purchase.",
"affectsPrice" : false,
"isVisible" : false,
"attributeDataType" : {
"name" : "DynProductNameForSuspendedSubscription",
"attributeDataTypeDetails" : {
"dataType" : 1,
"type" : 2,
"dataSize" : 256,
"validValues" : [ {
"code" : "ALL_PRODUCTS",
"name" : "All products"
}, {
"code" : "BlackBerry",
"name" : "BlackBerry"
}, {
"code" : "DATA_ON_VOICE",
"name" : "Data on voice"
}, {
"code" : "M2M",
"name" : "M2M"
}, {
"code" : "MOBILE_BROADBAND",
"name" : "Mobile Broadband"
}, {
"code" : "VOICE",
"name" : "Voice"
} ]
}
},
"propertyNameX1" : "Maximum_suspended_subscriptions_Product_name_1"
}
}
}, {
"catalogAttribute" : {
"catalogAttributeID" : 7339673,
"catalogAttributeDetails" : {
"name" : "Maximum of suspended subscriptions 1",
"description" : "Contains the agreed suspended subscriptions that corporate committed to purchase.",
"affectsPrice" : false,
"isVisible" : false,
"attributeDataType" : {
"name" : "AbsRangePositive",
"attributeDataTypeDetails" : {
"dataType" : 4,
"type" : 1,
"dataSize" : 10,
"ranges" : [ {
"minimum" : 1.0,
"maximum" : 99999.0
} ]
}
},
"propertyNameX1" : "Maximum_number_of_suspended_subscriptions_1"
}
}
}, {
"catalogAttribute" : {
"catalogAttributeID" : 7339173,
"catalogAttributeDetails" : {
"name" : "Maximum of suspended subscriptions Unit Type 1",
"description" : "Contains the unit type of the agreed number of suspended subscriptions that corporate committed to purchase.",
"affectsPrice" : false,
"defaultValue" : "NUMBER",
"isVisible" : false,
"attributeDataType" : {
"name" : "DynSubscribers_Definition_on_FWA",
"attributeDataTypeDetails" : {
"dataType" : 1,
"type" : 2,
"dataSize" : 256,
"validValues" : [ {
"code" : "NUMBER",
"name" : "Number"
}, {
"code" : "PERCENTAGE",
"name" : "Percentage"
} ]
}
},
"propertyNameX1" : "Maximum_of_suspended_subscriptions_Unit_Type_1"
}
},
"selectedValue" : "NUMBER"
}, {
"catalogAttribute" : {
"catalogAttributeID" : 7339213,
"catalogAttributeDetails" : {
"name" : "Maximum of suspended subscriptions Product name 2",
"description" : "Contains the product name of the agreed number of suspended subscriptions that corporate committed to purchase.",
"affectsPrice" : false,
"isVisible" : false,
"attributeDataType" : {
"name" : "DynProductNameForSuspendedSubscription",
"attributeDataTypeDetails" : {
"dataType" : 1,
"type" : 2,
"dataSize" : 256,
"validValues" : [ {
"code" : "ALL_PRODUCTS",
"name" : "All products"
}, {
"code" : "BlackBerry",
"name" : "BlackBerry"
}, {
"code" : "DATA_ON_VOICE",
"name" : "Data on voice"
}, {
"code" : "M2M",
"name" : "M2M"
}, {
"code" : "MOBILE_BROADBAND",
"name" : "Mobile Broadband"
}, {
"code" : "VOICE",
"name" : "Voice"
} ]
}
},
"propertyNameX1" : "Maximum_suspended_subscriptions_Product_name_2"
}
}
}, {
"catalogAttribute" : {
"catalogAttributeID" : 7339193,
"catalogAttributeDetails" : {
"name" : "Maximum of suspended subscriptions 2",
"description" : "Contains the agreed suspended subscriptions that corporate committed to purchase.",
"affectsPrice" : false,
"isVisible" : false,
"attributeDataType" : {
"name" : "AbsRangePositive",
"attributeDataTypeDetails" : {
"dataType" : 4,
"type" : 1,
"dataSize" : 10,
"ranges" : [ {
"minimum" : 1.0,
"maximum" : 99999.0
} ]
}
},
"propertyNameX1" : "Maximum_number_of_suspended_subscriptions_2"
}
}
}, {
"catalogAttribute" : {
"catalogAttributeID" : 7339203,
"catalogAttributeDetails" : {
"name" : "Maximum of suspended subscriptions Unit Type 2",
"description" : "Contains the unit type of the agreed number of suspended subscriptions that corporate committed to purchase.",
"affectsPrice" : false,
"defaultValue" : "NUMBER",
"isVisible" : false,
"attributeDataType" : {
"name" : "DynSubscribers_Definition_on_FWA",
"attributeDataTypeDetails" : {
"dataType" : 1,
"type" : 2,
"dataSize" : 256,
"validValues" : [ {
"code" : "NUMBER",
"name" : "Number"
}, {
"code" : "PERCENTAGE",
"name" : "Percentage"
} ]
}
},
"propertyNameX1" : "Maximum_of_suspended_subscriptions_Unit_Type_2"
}
},
"selectedValue" : "NUMBER"
}, {
"catalogAttribute" : {
"catalogAttributeID" : 7339243,
"catalogAttributeDetails" : {
"name" : "Maximum of suspended subscriptions Product name 3",
"description" : "Contains the product name of the agreed number of suspended subscriptions that corporate committed to purchase.",
"affectsPrice" : false,
"isVisible" : false,
"attributeDataType" : {
"name" : "DynProductNameForSuspendedSubscription",
"attributeDataTypeDetails" : {
"dataType" : 1,
"type" : 2,
"dataSize" : 256,
"validValues" : [ {
"code" : "ALL_PRODUCTS",
"name" : "All products"
}, {
"code" : "BlackBerry",
"name" : "BlackBerry"
}, {
"code" : "DATA_ON_VOICE",
"name" : "Data on voice"
}, {
"code" : "M2M",
"name" : "M2M"
}, {
"code" : "MOBILE_BROADBAND",
"name" : "Mobile Broadband"
}, {
"code" : "VOICE",
"name" : "Voice"
} ]
}
},
"propertyNameX1" : "Maximum_suspended_subscriptions_Product_name_3"
}
}
}, {
"catalogAttribute" : {
"catalogAttributeID" : 7339223,
"catalogAttributeDetails" : {
"name" : "Maximum of suspended subscriptions 3",
"description" : "Contains the agreed suspended subscriptions that corporate committed to purchase.",
"affectsPrice" : false,
"isVisible" : false,
"attributeDataType" : {
"name" : "AbsRangePositive",
"attributeDataTypeDetails" : {
"dataType" : 4,
"type" : 1,
"dataSize" : 10,
"ranges" : [ {
"minimum" : 1.0,
"maximum" : 99999.0
} ]
}
},
"propertyNameX1" : "Maximum_number_of_suspended_subscriptions_3"
}
}
}, {
"catalogAttribute" : {
"catalogAttributeID" : 7339233,
"catalogAttributeDetails" : {
"name" : "Maximum of suspended subscriptions Unit Type 3",
"description" : "Contains the unit type of the agreed number of suspended subscriptions that corporate committed to purchase.",
"affectsPrice" : false,
"defaultValue" : "NUMBER",
"isVisible" : false,
"attributeDataType" : {
"name" : "DynSubscribers_Definition_on_FWA",
"attributeDataTypeDetails" : {
"dataType" : 1,
"type" : 2,
"dataSize" : 256,
"validValues" : [ {
"code" : "NUMBER",
"name" : "Number"
}, {
"code" : "PERCENTAGE",
"name" : "Percentage"
} ]
}
},
"propertyNameX1" : "Maximum_of_suspended_subscriptions_Unit_Type_3"
}
},
"selectedValue" : "NUMBER"
}, {
"catalogAttribute" : {
"catalogAttributeID" : 7339273,
"catalogAttributeDetails" : {
"name" : "Maximum of suspended subscriptions Product name 4",
"description" : "Contains the product name of the agreed number of suspended subscriptions that corporate committed to purchase.",
"affectsPrice" : false,
"isVisible" : false,
"attributeDataType" : {
"name" : "DynProductNameForSuspendedSubscription",
"attributeDataTypeDetails" : {
"dataType" : 1,
"type" : 2,
"dataSize" : 256,
"validValues" : [ {
"code" : "ALL_PRODUCTS",
"name" : "All products"
}, {
"code" : "BlackBerry",
"name" : "BlackBerry"
}, {
"code" : "DATA_ON_VOICE",
"name" : "Data on voice"
}, {
"code" : "M2M",
"name" : "M2M"
}, {
"code" : "MOBILE_BROADBAND",
"name" : "Mobile Broadband"
}, {
"code" : "VOICE",
"name" : "Voice"
} ]
}
},
"propertyNameX1" : "Maximum_suspended_subscriptions_Product_name_4"
}
}
}, {
"catalogAttribute" : {
"catalogAttributeID" : 7339253,
"catalogAttributeDetails" : {
"name" : "Maximum of suspended subscriptions 4",
"description" : "Contains the agreed suspended subscriptions that corporate committed to purchase.",
"affectsPrice" : false,
"isVisible" : false,
"attributeDataType" : {
"name" : "AbsRangePositive",
"attributeDataTypeDetails" : {
"dataType" : 4,
"type" : 1,
"dataSize" : 10,
"ranges" : [ {
"minimum" : 1.0,
"maximum" : 99999.0
} ]
}
},
"propertyNameX1" : "Maximum_number_of_suspended_subscriptions_4"
}
}
}, {
"catalogAttribute" : {
"catalogAttributeID" : 7339283,
"catalogAttributeDetails" : {
"name" : "Maximum of suspended subscriptions Unit Type 4",
"description" : "Contains the unit type of the agreed number of suspended subscriptions that corporate committed to purchase.",
"affectsPrice" : false,
"defaultValue" : "NUMBER",
"isVisible" : false,
"attributeDataType" : {
"name" : "DynSubscribers_Definition_on_FWA",
"attributeDataTypeDetails" : {
"dataType" : 1,
"type" : 2,
"dataSize" : 256,
"validValues" : [ {
"code" : "NUMBER",
"name" : "Number"
}, {
"code" : "PERCENTAGE",
"name" : "Percentage"
} ]
}
},
"propertyNameX1" : "Maximum_of_suspended_subscriptions_Unit_Type_4"
}
},
"selectedValue" : "NUMBER"
}, {
"catalogAttribute" : {
"catalogAttributeID" : 4110429,
"catalogAttributeDetails" : {
"name" : "Number of suspended subscriptions exceed the contract",
"description" : "Contains the additional number of suspended subscribers that can be added on top of the 'Minimum number of suspended subscriptions' without a need to set a new contract",
"affectsPrice" : false,
"isVisible" : false,
"attributeDataType" : {
"name" : "AbsRangePositive",
"attributeDataTypeDetails" : {
"dataType" : 4,
"type" : 1,
"dataSize" : 10,
"ranges" : [ {
"minimum" : 1.0,
"maximum" : 99999.0
} ]
}
},
"propertyNameX1" : "Number_of_suspended_subscriptions_exceed_the_contract"
}
}
}, {
"catalogAttribute" : {
"catalogAttributeID" : 4110649,
"catalogAttributeDetails" : {
"name" : "Default Shipment Method",
"description" : "Contains the default shipping method that should be set when ordering goods via Mobile License & equipment",
"affectsPrice" : false,
"isVisible" : false,
"attributeDataType" : {
"name" : "AbsShipmentChargeArticle",
"attributeDataTypeDetails" : {
"dataType" : 1,
"type" : 2,
"dataSize" : 256,
"validValues" : [ {
"code" : 110000371,
"name" : "Buitenland"
}, {
"code" : 110000357,
"name" : "Express"
}, {
"code" : 110000356,
"name" : "Standard"
} ]
}
},
"propertyNameX1" : "Default_Shipment_Method"
}
}
}, {
"catalogAttribute" : {
"catalogAttributeID" : 4110509,
"catalogAttributeDetails" : {
"name" : "Deviations General Conditions",
"description" : "Free text attribute capturing legal conditions as the price indexation (= inflation correction)",
"affectsPrice" : false,
"isVisible" : false,
"attributeDataType" : {
"name" : "AbsString",
"attributeDataTypeDetails" : {
"dataType" : 1,
"type" : 0,
"dataSize" : 256
}
},
"propertyNameX1" : "Deviations_General_Conditions"
}
}
}, {
"catalogAttribute" : {
"catalogAttributeID" : 4110599,
"catalogAttributeDetails" : {
"name" : "Fair Usage Policy Ind",
"description" : "Fair Usage Policy is the minimum consumption a user must have. The attribute indicates whether fair usage conditions were set.",
"affectsPrice" : false,
"isVisible" : false,
"attributeDataType" : {
"name" : "AbsYesNo",
"attributeDataTypeDetails" : {
"dataType" : 1,
"type" : 2,
"dataSize" : 256,
"validValues" : [ {
"code" : "Yes",
"name" : "Ja"
}, {
"code" : "No",
"name" : "Nee"
} ]
}
},
"propertyNameX1" : "Fair_Usage_Policy_Ind"
}
}
}, {
"catalogAttribute" : {
"catalogAttributeID" : 4110619,
"catalogAttributeDetails" : {
"name" : "Is BTG Discount eligible",
"description" : "Indicates whether the corporate is part of BTG and eligible for additional BTG discount",
"affectsPrice" : false,
"isVisible" : false,
"attributeDataType" : {
"name" : "AbsYesNo",
"attributeDataTypeDetails" : {
"dataType" : 1,
"type" : 2,
"dataSize" : 256,
"validValues" : [ {
"code" : "Yes",
"name" : "Ja"
}, {
"code" : "No",
"name" : "Nee"
} ]
}
},
"propertyNameX1" : "Is_BTG_Discount_eligible"
}
}
}, {
"catalogAttribute" : {
"catalogAttributeID" : 4110609,
"catalogAttributeDetails" : {
"name" : "Is Device Return",
"description" : "Indicates if device should be returned once subscriber is ceased or device is cancelled",
"affectsPrice" : false,
"isVisible" : false,
"attributeDataType" : {
"name" : "AbsYesNo",
"attributeDataTypeDetails" : {
"dataType" : 1,
"type" : 2,
"dataSize" : 256,
"validValues" : [ {
"code" : "Yes",
"name" : "Ja"
}, {
"code" : "No",
"name" : "Nee"
} ]
}
},
"propertyNameX1" : "Is_Device_Return"
}
}
}, {
"catalogAttribute" : {
"catalogAttributeID" : 4110629,
"catalogAttributeDetails" : {
"name" : "Is eligible to purchase device outside of framework",
"description" : "Indicate if chooser can order device without selecting framework agreement",
"affectsPrice" : false,
"defaultValue" : "No",
"isVisible" : false,
"attributeDataType" : {
"name" : "AbsYesNo",
"attributeDataTypeDetails" : {
"dataType" : 1,
"type" : 2,
"dataSize" : 256,
"validValues" : [ {
"code" : "Yes",
"name" : "Ja"
}, {
"code" : "No",
"name" : "Nee"
} ]
}
},
"propertyNameX1" : "Is_eligible_to_purchase_device_outside_of_framework"
}
},
"selectedValue" : "No"
}, {
"catalogAttribute" : {
"catalogAttributeID" : 4110559,
"catalogAttributeDetails" : {
"name" : "Contractual Bonus Due Date 1",
"description" : "Contains the date on which the contractual bonus should be applied",
"affectsPrice" : false,
"isVisible" : false,
"attributeDataType" : {
"name" : "AbsDate",
"attributeDataTypeDetails" : {
"dataType" : 3,
"type" : 0,
"dataSize" : 256
}
},
"propertyNameX1" : "Contractual_Bonus_Due_Date_1"
}
}
}, {
"catalogAttribute" : {
"catalogAttributeID" : 4472299,
"catalogAttributeDetails" : {
"name" : "Contractual Bonus Due Date 2",
"description" : "Contains the date on which the contractual bonus should be applied",
"affectsPrice" : false,
"isVisible" : false,
"attributeDataType" : {
"name" : "AbsDate",
"attributeDataTypeDetails" : {
"dataType" : 3,
"type" : 0,
"dataSize" : 256
}
},
"propertyNameX1" : "Contractual_Bonus_Due_Date_2"
}
}
}, {
"catalogAttribute" : {
"catalogAttributeID" : 4472259,
"catalogAttributeDetails" : {
"name" : "Contractual Bonus Due Date 3",
"description" : "Contains the date on which the contractual bonus should be applied",
"affectsPrice" : false,
"isVisible" : false,
"attributeDataType" : {
"name" : "AbsDate",
"attributeDataTypeDetails" : {
"dataType" : 3,
"type" : 0,
"dataSize" : 256
}
},
"propertyNameX1" : "Contractual_Bonus_Due_Date_3"
}
}
}, {
"catalogAttribute" : {
"catalogAttributeID" : 4472289,
"catalogAttributeDetails" : {
"name" : "Contractual Bonus Due Date 4",
"description" : "Contains the date on which the contractual bonus should be applied",
"affectsPrice" : false,
"isVisible" : false,
"attributeDataType" : {
"name" : "AbsDate",
"attributeDataTypeDetails" : {
"dataType" : 3,
"type" : 0,
"dataSize" : 256
}
},
"propertyNameX1" : "Contractual_Bonus_Due_Date_4"
}
}
}, {
"catalogAttribute" : {
"catalogAttributeID" : 4472279,
"catalogAttributeDetails" : {
"name" : "Contractual Bonus Due Date 5",
"description" : "Contains the date on which the contractual bonus should be applied",
"affectsPrice" : false,
"isVisible" : false,
"attributeDataType" : {
"name" : "AbsDate",
"attributeDataTypeDetails" : {
"dataType" : 3,
"type" : 0,
"dataSize" : 256
}
},
"propertyNameX1" : "Contractual_Bonus_Due_Date_5"
}
}
}, {
"catalogAttribute" : {
"catalogAttributeID" : 4472269,
"catalogAttributeDetails" : {
"name" : "Contractual Bonus Due Date 6",
"description" : "Contains the date on which the contractual bonus should be applied",
"affectsPrice" : false,
"isVisible" : false,
"attributeDataType" : {
"name" : "AbsDate",
"attributeDataTypeDetails" : {
"dataType" : 3,
"type" : 0,
"dataSize" : 256
}
},
"propertyNameX1" : "Contractual_Bonus_Due_Date_6"
}
}
}, {
"catalogAttribute" : {
"catalogAttributeID" : 4111259,
"catalogAttributeDetails" : {
"name" : "Minimum Duration",
"description" : "Contains the minimum duration that subscriber should be active before can move to timeout No validation will be performed on mobile order against this attribute",
"affectsPrice" : false,
"isVisible" : false,
"attributeDataType" : {
"name" : "AbsInteger",
"attributeDataTypeDetails" : {
"dataType" : 4,
"type" : 0,
"dataSize" : 10
}
},
"propertyNameX1" : "Minimum_Duration"
}
}
}, {
"catalogAttribute" : {
"catalogAttributeID" : 4110469,
"catalogAttributeDetails" : {
"name" : "Maximum Change Order Actions",
"description" : "Contains the maximum number of supported Change order actions a user can issue free of charge",
"affectsPrice" : false,
"isVisible" : false,
"attributeDataType" : {
"name" : "AbsRangePositive",
"attributeDataTypeDetails" : {
"dataType" : 4,
"type" : 1,
"dataSize" : 10,
"ranges" : [ {
"minimum" : 1.0,
"maximum" : 99999.0
} ]
}
},
"propertyNameX1" : "Maximum_Change_Order_Actions"
}
}
}, {
"catalogAttribute" : {
"catalogAttributeID" : 4110449,
"catalogAttributeDetails" : {
"name" : "Number of subscribers that can be downgraded",
"description" : "Contains the total number of subscribers that can downgrade their plan without triggering a penalty",
"affectsPrice" : false,
"isVisible" : false,
"attributeDataType" : {
"name" : "AbsRangePositive",
"attributeDataTypeDetails" : {
"dataType" : 4,
"type" : 1,
"dataSize" : 10,
"ranges" : [ {
"minimum" : 1.0,
"maximum" : 99999.0
} ]
}
},
"propertyNameX1" : "Number_of_subscribers_that_can_be_downgraded"
}
}
}, {
"catalogAttribute" : {
"catalogAttributeID" : 4110479,
"catalogAttributeDetails" : {
"name" : "Maximum Change User contact",
"description" : "Contains the maximum number of supported Change user contacts that can take place free of charge",
"affectsPrice" : false,
"isVisible" : false,
"attributeDataType" : {
"name" : "AbsRangePositive",
"attributeDataTypeDetails" : {
"dataType" : 4,
"type" : 1,
"dataSize" : 10,
"ranges" : [ {
"minimum" : 1.0,
"maximum" : 99999.0
} ]
}
},
"propertyNameX1" : "Maximum_Change_User_contact"
}
}
}, {
"catalogAttribute" : {
"catalogAttributeID" : 4110439,
"catalogAttributeDetails" : {
"name" : "Number of subscribers that can be upgraded",
"description" : "Contains the total number of subscribers that can upgrade their plan without triggering a penalty",
"affectsPrice" : false,
"isVisible" : false,
"attributeDataType" : {
"name" : "AbsRangePositive",
"attributeDataTypeDetails" : {
"dataType" : 4,
"type" : 1,
"dataSize" : 10,
"ranges" : [ {
"minimum" : 1.0,
"maximum" : 99999.0
} ]
}
},
"propertyNameX1" : "Number_of_subscribers_that_can_be_upgraded"
}
}
}, {
"catalogAttribute" : {
"catalogAttributeID" : 4110499,
"catalogAttributeDetails" : {
"name" : "Maximum Voluntary Resume Actions",
"description" : "Contains the maximum number of supported Voluntary Resume order actions a user can issue free of charge",
"affectsPrice" : false,
"isVisible" : false,
"attributeDataType" : {
"name" : "AbsRangePositive",
"attributeDataTypeDetails" : {
"dataType" : 4,
"type" : 1,
"dataSize" : 10,
"ranges" : [ {
"minimum" : 1.0,
"maximum" : 99999.0
} ]
}
},
"propertyNameX1" : "Maximum_Voluntary_Resume_Actions"
}
}
}, {
"catalogAttribute" : {
"catalogAttributeID" : 4110459,
"catalogAttributeDetails" : {
"name" : "Number of subscribers that transfer user",
"description" : "Contains the total number of subscribers that can change their ownership to a different billing customer without triggering a penalty",
"affectsPrice" : false,
"isVisible" : false,
"attributeDataType" : {
"name" : "AbsRangePositive",
"attributeDataTypeDetails" : {
"dataType" : 4,
"type" : 1,
"dataSize" : 10,
"ranges" : [ {
"minimum" : 1.0,
"maximum" : 99999.0
} ]
}
},
"propertyNameX1" : "Number_of_subscribers_that_transfer_user"
}
}
}, {
"catalogAttribute" : {
"catalogAttributeID" : 4110489,
"catalogAttributeDetails" : {
"name" : "Maximum Voluntary Suspend Actions",
"description" : "Contains the maximum number of supported Voluntary Suspend order actions a user can issue free of charge",
"affectsPrice" : false,
"isVisible" : false,
"attributeDataType" : {
"name" : "AbsRangePositive",
"attributeDataTypeDetails" : {
"dataType" : 4,
"type" : 1,
"dataSize" : 10,
"ranges" : [ {
"minimum" : 1.0,
"maximum" : 99999.0
} ]
}
},
"propertyNameX1" : "Maximum_Voluntary_Suspend_Actions"
}
}
}, {
"catalogAttribute" : {
"catalogAttributeID" : 4110379,
"catalogAttributeDetails" : {
"name" : "Opzegtermijn",
"description" : "Contract Opzegtermijn",
"affectsPrice" : false,
"defaultValue" : 30,
"isVisible" : false,
"attributeDataType" : {
"name" : "AbsInteger",
"attributeDataTypeDetails" : {
"dataType" : 4,
"type" : 0,
"dataSize" : 10
}
},
"propertyNameX1" : "Period_of_Notice"
}
},
"selectedValue" : 30
}, {
"catalogAttribute" : {
"catalogAttributeID" : 4110549,
"catalogAttributeDetails" : {
"name" : "Contractual Bonus Ind",
"description" : "Indicates whether to apply a bonus based on corporate performance. This will be handled manually.",
"affectsPrice" : false,
"isVisible" : false,
"attributeDataType" : {
"name" : "AbsYesNo",
"attributeDataTypeDetails" : {
"dataType" : 1,
"type" : 2,
"dataSize" : 256,
"validValues" : [ {
"code" : "Yes",
"name" : "Ja"
}, {
"code" : "No",
"name" : "Nee"
} ]
}
},
"propertyNameX1" : "Contractual_Bonus_Ind"
}
}
}, {
"catalogAttribute" : {
"catalogAttributeID" : 4472159,
"catalogAttributeDetails" : {
"name" : "Payment Term",
"description" : "Attribute to capture the payment method.",
"affectsPrice" : false,
"defaultValue" : 30,
"isVisible" : false,
"attributeDataType" : {
"name" : "AbsString",
"attributeDataTypeDetails" : {
"dataType" : 1,
"type" : 0,
"dataSize" : 256
}
},
"propertyNameX1" : "Payment_Term"
}
},
"selectedValue" : 30
}, {
"catalogAttribute" : {
"catalogAttributeID" : 4110589,
"catalogAttributeDetails" : {
"name" : "Penalty Amount",
"description" : "Contains the penalty amount VF pays the corporate if VF does not meet the SLA or if it issues an incorrect invoice",
"affectsPrice" : false,
"isVisible" : false,
"attributeDataType" : {
"name" : "AbsRangePositive_PenaltyAmount",
"attributeDataTypeDetails" : {
"dataType" : 4,
"type" : 1,
"dataSize" : 10,
"ranges" : [ {
"minimum" : 1.0,
"maximum" : 9999999.0
} ]
}
},
"propertyNameX1" : "Penalty_Amount"
}
}
}, {
"catalogAttribute" : {
"catalogAttributeID" : 4110569,
"catalogAttributeDetails" : {
"name" : "Penalty Clause Agreement Description",
"description" : "Free text attribute containing the agreement details according to which VF pays a penalty to the corporate if VF does not meet the SLA or if it issues an incorrect invoice",
"affectsPrice" : false,
"isVisible" : false,
"attributeDataType" : {
"name" : "AbsString",
"attributeDataTypeDetails" : {
"dataType" : 1,
"type" : 0,
"dataSize" : 256
}
},
"propertyNameX1" : "Penalty_Clause_Agreement_Description"
}
}
}, {
"catalogAttribute" : {
"catalogAttributeID" : 4110579,
"catalogAttributeDetails" : {
"name" : "Penalty Clause Duration",
"description" : "Contains the duration, following which VF will pay a penalty to the corporate if it does not meet the SLA or issues an incorrect invoice",
"affectsPrice" : false,
"isVisible" : false,
"attributeDataType" : {
"name" : "AbsInteger",
"attributeDataTypeDetails" : {
"dataType" : 4,
"type" : 0,
"dataSize" : 10
}
},
"propertyNameX1" : "Penalty_Clause_Duration"
}
}
}, {
"catalogAttribute" : {
"catalogAttributeID" : 4110639,
"catalogAttributeDetails" : {
"name" : "Restrict Device Selection",
"description" : "Indicate to portal if chooser can select any device from the list, or only device that were defined in Device agreement component",
"affectsPrice" : false,
"defaultValue" : "No",
"isVisible" : false,
"attributeDataType" : {
"name" : "AbsYesNo",
"attributeDataTypeDetails" : {
"dataType" : 1,
"type" : 2,
"dataSize" : 256,
"validValues" : [ {
"code" : "Yes",
"name" : "Ja"
}, {
"code" : "No",
"name" : "Nee"
} ]
}
},
"propertyNameX1" : "Restrict_Device_Selection"
}
},
"selectedValue" : "No"
}, {
"catalogAttribute" : {
"catalogAttributeID" : 4110519,
"catalogAttributeDetails" : {
"name" : "SLA Benchmark Due Date",
"description" : "SLA Benchmark to set an alarm",
"affectsPrice" : false,
"isVisible" : false,
"attributeDataType" : {
"name" : "AbsDate",
"attributeDataTypeDetails" : {
"dataType" : 3,
"type" : 0,
"dataSize" : 256
}
},
"propertyNameX1" : "SLA_Benchmark_Due_Date"
}
},
"selectedValue" : "06/11/2021 00:00:00"
} ],
"productStatus" : "AC",
"totalPrices" : {
"totalOC" : 0.0,
"totalRC" : 0.0,
"previousTotalRC" : 0.0,
"originalTotalOC" : 0.0,
"discountTotalOC" : 0.0,
"overrideTotalOC" : 0.0,
"taxTotalOC" : 0.0,
"originalTotalRC" : 0.0,
"discountTotalRC" : 0.0,
"taxTotalRC" : 0.0,
"proratedTotalRC" : 0.0,
"proratedDiscountTotalRC" : 0.0,
"proratedTaxTotalRC" : 0.0,
"previousTaxTotalRC" : 0.0
},
"assignedProducID" : 11247280582,
"serviceID" : "VZ-2020-00007461",
"catalogProductID" : 4124879,
"catalogProductCod" : "Contract_Details",
"catalogProductName" : "Contract Details",
"itemActionType" : "N",
"actionType" : "AD"
}, {
"implementedAttributes" : [ {
"catalogAttribute" : {
"catalogAttributeID" : 4110849,
"catalogAttributeDetails" : {
"name" : "Block expiration date Ind",
"description" : "Als deze waarde \"Y\" is dan zal de einddatum van het contract van deze gebruiker berekend worden middels de contractsduur waardes vanuit Framework (looptijd of einddatum). Als deze waarde \"N\" is, dan zal de einddatum van het contract van deze gebruiker berekend worden middels de reguliere contractsduur waardes (looptijd of einddatum)",
"affectsPrice" : false,
"isVisible" : false,
"attributeDataType" : {
"name" : "AbsYesNo",
"attributeDataTypeDetails" : {
"dataType" : 1,
"type" : 2,
"dataSize" : 256,
"validValues" : [ {
"code" : "Yes",
"name" : "Ja"
}, {
"code" : "No",
"name" : "Nee"
} ]
}
},
"propertyNameX1" : "Block_expiration_date_Ind"
}
},
"selectedValue" : "No"
}, {
"catalogAttribute" : {
"catalogAttributeID" : 4110819,
"catalogAttributeDetails" : {
"name" : "Framework Commitment End Date",
"description" : "The commitment end date of the framework agreement",
"affectsPrice" : false,
"isVisible" : false,
"attributeDataType" : {
"name" : "AbsDate",
"attributeDataTypeDetails" : {
"dataType" : 3,
"type" : 0,
"dataSize" : 256
}
},
"propertyNameX1" : "Framework_Commitment_End_Date"
}
},
"selectedValue" : "07/31/2022 00:00:00"
}, {
"catalogAttribute" : {
"catalogAttributeID" : 4110809,
"catalogAttributeDetails" : {
"name" : "Framework Commitment Period",
"description" : "The agreed duration in which the corporate has committed to use the service",
"affectsPrice" : false,
"defaultValue" : 24,
"isVisible" : false,
"attributeDataType" : {
"name" : "DynVFCommitmentPeriod_Framework",
"attributeDataTypeDetails" : {
"dataType" : 1,
"type" : 2,
"dataSize" : 256,
"validValues" : [ {
"code" : 12,
"name" : "12 maanden"
}, {
"code" : 24,
"name" : "24 maanden"
}, {
"code" : 25,
"name" : "25 maanden"
}, {
"code" : 36,
"name" : "36 maanden"
}, {
"code" : 48,
"name" : "48 maanden"
}, {
"code" : 60,
"name" : "60 maanden"
}, {
"code" : 0,
"name" : "Geen"
} ]
}
},
"propertyNameX1" : "Framework_Commitment_Period"
}
},
"selectedValue" : 24
}, {
"catalogAttribute" : {
"catalogAttributeID" : 4110859,
"catalogAttributeDetails" : {
"name" : "Is Allow Early termination",
"description" : "Indicatie of gebruiker contract kan opzeggen op het moment dat contractsduur nog niet verstreken is. Als deze waarde \"No\" is, dan is het niet mogelijk om via Online kanaal het contract te beeindigen wanneer de contract einddatum nog niet verstreken is",
"affectsPrice" : false,
"defaultValue" : "No",
"isVisible" : false,
"attributeDataType" : {
"name" : "AbsYesNo",
"attributeDataTypeDetails" : {
"dataType" : 1,
"type" : 2,
"dataSize" : 256,
"validValues" : [ {
"code" : "Yes",
"name" : "Ja"
}, {
"code" : "No",
"name" : "Nee"
} ]
}
},
"propertyNameX1" : "Is_Allow_Early_termination"
}
},
"selectedValue" : "No"
}, {
"catalogAttribute" : {
"catalogAttributeID" : 4110839,
"catalogAttributeDetails" : {
"name" : "Subscriber Commitment End Date",
"description" : "The commitment end date that should be propagated to all corporate subscribers",
"affectsPrice" : false,
"isVisible" : false,
"attributeDataType" : {
"name" : "AbsDate",
"attributeDataTypeDetails" : {
"dataType" : 3,
"type" : 0,
"dataSize" : 256
}
},
"propertyNameX1" : "Subscriber_Commitment_End_Date"
}
}
}, {
"catalogAttribute" : {
"catalogAttributeID" : 4110829,
"catalogAttributeDetails" : {
"name" : "Subscriber Commitment Period",
"description" : "The agreed commitment duration that should be propagated to all corporate subscribers",
"affectsPrice" : false,
"defaultValue" : 24,
"isVisible" : false,
"attributeDataType" : {
"name" : "AbsVFCommitmentPeriod",
"attributeDataTypeDetails" : {
"dataType" : 1,
"type" : 2,
"dataSize" : 256,
"validValues" : [ {
"code" : 1,
"name" : "1 maand"
}, {
"code" : 108,
"name" : "108 maanden"
}, {
"code" : 12,
"name" : "12 maanden"
}, {
"code" : 120,
"name" : "120 maanden"
}, {
"code" : 21,
"name" : "21 maanden"
}, {
"code" : 22,
"name" : "22 maanden"
}, {
"code" : 24,
"name" : "24 maanden"
}, {
"code" : 25,
"name" : "25 maanden"
}, {
"code" : 27,
"name" : "27 maanden"
}, {
"code" : 36,
"name" : "36 maanden"
}, {
"code" : 37,
"name" : "37 maanden"
}, {
"code" : 48,
"name" : "48 maanden"
}, {
"code" : 58,
"name" : "58 maanden"
}, {
"code" : 6,
"name" : "6 maanden"
}, {
"code" : 60,
"name" : "60 maanden"
}, {
"code" : 72,
"name" : "72 maanden"
}, {
"code" : 84,
"name" : "84 maanden"
}, {
"code" : 96,
"name" : "96 maanden"
}, {
"code" : 0,
"name" : "Geen"
} ]
}
},
"propertyNameX1" : "Subscriber_Commitment_Period"
}
},
"selectedValue" : 24
} ],
"productStatus" : "AC",
"totalPrices" : {
"totalOC" : 0.0,
"totalRC" : 0.0,
"previousTotalRC" : 0.0,
"originalTotalOC" : 0.0,
"discountTotalOC" : 0.0,
"overrideTotalOC" : 0.0,
"taxTotalOC" : 0.0,
"originalTotalRC" : 0.0,
"discountTotalRC" : 0.0,
"taxTotalRC" : 0.0,
"proratedTotalRC" : 0.0,
"proratedDiscountTotalRC" : 0.0,
"proratedTaxTotalRC" : 0.0,
"previousTaxTotalRC" : 0.0
},
"assignedProducID" : 11247280583,
"catalogProductID" : 4137009,
"catalogProductCod" : "Framework_Commitment",
"catalogProductName" : "Framework Commitment",
"itemActionType" : "N",
"actionType" : "AD"
}, {
"productStatus" : "AC",
"totalPrices" : {
"totalOC" : 0.0,
"totalRC" : 0.0,
"previousTotalRC" : 0.0,
"originalTotalOC" : 0.0,
"discountTotalOC" : 0.0,
"overrideTotalOC" : 0.0,
"taxTotalOC" : 0.0,
"originalTotalRC" : 0.0,
"discountTotalRC" : 0.0,
"taxTotalRC" : 0.0,
"proratedTotalRC" : 0.0,
"proratedDiscountTotalRC" : 0.0,
"proratedTaxTotalRC" : 0.0,
"previousTaxTotalRC" : 0.0
},
"assignedProducID" : 11247280584,
"catalogProductID" : 735245,
"catalogProductCod" : "Group_Level_Discounts_and_Charges",
"catalogProductName" : "Groepsniveau Discounts en Charges",
"itemActionType" : "N",
"actionType" : "AD"
} ],
"implementedAttributes" : [ {
"catalogAttribute" : {
"catalogAttributeID" : 730855,
"catalogAttributeDetails" : {
"name" : "First Target Role Entity ID",
"description" : "Identificatienummer van contact rol in CRM",
"affectsPrice" : false,
"isVisible" : false,
"attributeDataType" : {
"name" : "AbsString",
"attributeDataTypeDetails" : {
"dataType" : 1,
"type" : 0,
"dataSize" : 256
}
},
"propertyNameX1" : "First_Target_Role_Entity_ID"
}
}
}, {
"catalogAttribute" : {
"catalogAttributeID" : 730205,
"catalogAttributeDetails" : {
"name" : "First Target Role Entity Type",
"description" : "Geeft aan tot welk niveau het contract behoort: Contact, Account, Customer, Subscriber, FA, BA.",
"affectsPrice" : false,
"isVisible" : false,
"attributeDataType" : {
"name" : "AbsTargetRoleEntityType",
"attributeDataTypeDetails" : {
"dataType" : 1,
"type" : 2,
"dataSize" : 256,
"validValues" : [ {
"code" : "Account",
"name" : "Account"
}, {
"code" : "BA",
"name" : "BA"
}, {
"code" : "Contact",
"name" : "Contact"
}, {
"code" : "Customer",
"name" : "Customer"
}, {
"code" : "FA",
"name" : "FA"
}, {
"code" : "Subscriber",
"name" : "Subscriber"
} ]
}
},
"propertyNameX1" : "First_Target_Role_Entity_Type"
}
}
}, {
"catalogAttribute" : {
"catalogAttributeID" : 687005,
"catalogAttributeDetails" : {
"name" : "1e verbruiksnotificatie ontvanger",
"description" : "Persoon die notificatie dient de ontvangen wanneer een bundel bijna verbruikt is, wordt gebruikt door bedrijfsadministrator",
"affectsPrice" : false,
"isVisible" : false,
"attributeDataType" : {
"name" : "AbsString",
"attributeDataTypeDetails" : {
"dataType" : 1,
"type" : 0,
"dataSize" : 256
}
},
"propertyNameX1" : "First_Target_User_Role"
}
}
}, {
"catalogAttribute" : {
"catalogAttributeID" : 4111609,
"catalogAttributeDetails" : {
"name" : "Framework Agreement Identifier",
"description" : "A number used as a unique identifier of the Framework Agreement Assigned Product",
"affectsPrice" : false,
"isVisible" : false,
"attributeDataType" : {
"name" : "DynString",
"attributeDataTypeDetails" : {
"dataType" : 1,
"type" : 0,
"dataSize" : 256
}
},
"propertyNameX1" : "Framework_Agreement_Identifier"
}
},
"selectedValue" : 11247280580
}, {
"catalogAttribute" : {
"catalogAttributeID" : 4110949,
"catalogAttributeDetails" : {
"name" : "Is Hand Over",
"description" : "Indicatie of product volledig geleverd is en of support dit in behandeling zou moeten nemen",
"affectsPrice" : false,
"defaultValue" : "No",
"isVisible" : false,
"attributeDataType" : {
"name" : "AbsYesNo",
"attributeDataTypeDetails" : {
"dataType" : 1,
"type" : 2,
"dataSize" : 256,
"validValues" : [ {
"code" : "Yes",
"name" : "Ja"
}, {
"code" : "No",
"name" : "Nee"
} ]
}
},
"propertyNameX1" : "Is_Hand_Over"
}
},
"selectedValue" : "No"
}, {
"catalogAttribute" : {
"catalogAttributeID" : 5598189,
"catalogAttributeDetails" : {
"name" : "Mobile Goods offer CID",
"description" : "Holds a linkage between Mobile framework product offering and the corresponding Mobile Goods product offering CID",
"affectsPrice" : false,
"defaultValue" : 5339059,
"isVisible" : false,
"attributeDataType" : {
"name" : "AbsInteger",
"attributeDataTypeDetails" : {
"dataType" : 4,
"type" : 0,
"dataSize" : 10
}
},
"propertyNameX1" : "Mobile_Goods_offer_CID"
}
},
"selectedValue" : 5339059
}, {
"catalogAttribute" : {
"catalogAttributeID" : 4110899,
"catalogAttributeDetails" : {
"name" : "Mobile Goods offer name",
"description" : "Holds a linkage between Mobile framework product offering and the corresponding Mobile Goods product offering",
"affectsPrice" : false,
"defaultValue" : "Enterprise Mobile Licenses & Equipment",
"isVisible" : false,
"attributeDataType" : {
"name" : "AbsString",
"attributeDataTypeDetails" : {
"dataType" : 1,
"type" : 0,
"dataSize" : 256
}
},
"propertyNameX1" : "Mobile_Goods_offer_name"
}
},
"selectedValue" : "Enterprise Mobile Licenses & Equipment"
}, {
"catalogAttribute" : {
"catalogAttributeID" : 127888,
"catalogAttributeDetails" : {
"name" : "PO nummer",
"description" : "Purchase Order Nummer",
"affectsPrice" : false,
"isVisible" : false,
"attributeDataType" : {
"name" : "AbsString",
"attributeDataTypeDetails" : {
"dataType" : 1,
"type" : 0,
"dataSize" : 256
}
},
"propertyNameX1" : "PO_Number"
}
}
}, {
"catalogAttribute" : {
"catalogAttributeID" : 730865,
"catalogAttributeDetails" : {
"name" : "Second Target Role Entity ID",
"description" : "Identificatienummer van contact rol in CRM",
"affectsPrice" : false,
"isVisible" : false,
"attributeDataType" : {
"name" : "AbsString",
"attributeDataTypeDetails" : {
"dataType" : 1,
"type" : 0,
"dataSize" : 256
}
},
"propertyNameX1" : "Second_Target_Role_Entity_ID"
}
}
}, {
"catalogAttribute" : {
"catalogAttributeID" : 731335,
"catalogAttributeDetails" : {
"name" : "Second Target Role Entity type",
"description" : "Geeft aan tot welk niveau het contract behoort: Contact, Account, Customer, Subscriber, FA, BA.",
"affectsPrice" : false,
"isVisible" : false,
"attributeDataType" : {
"name" : "AbsTargetRoleEntityType",
"attributeDataTypeDetails" : {
"dataType" : 1,
"type" : 2,
"dataSize" : 256,
"validValues" : [ {
"code" : "Account",
"name" : "Account"
}, {
"code" : "BA",
"name" : "BA"
}, {
"code" : "Contact",
"name" : "Contact"
}, {
"code" : "Customer",
"name" : "Customer"
}, {
"code" : "FA",
"name" : "FA"
}, {
"code" : "Subscriber",
"name" : "Subscriber"
} ]
}
},
"propertyNameX1" : "Second_Target_Role_Entity_Type"
}
}
}, {
"catalogAttribute" : {
"catalogAttributeID" : 687015,
"catalogAttributeDetails" : {
"name" : "2e verbruiksnotificatie ontvanger",
"description" : "Persoon die notificatie dient de ontvangen wanneer een bundel bijna verbruikt is, wordt gebruikt door bedrijfsadministrator",
"affectsPrice" : false,
"isVisible" : false,
"attributeDataType" : {
"name" : "AbsString",
"attributeDataTypeDetails" : {
"dataType" : 1,
"type" : 0,
"dataSize" : 256
}
},
"propertyNameX1" : "Second_Target_User_Role"
}
}
} ],
"productStatus" : "AC",
"totalPrices" : {
"totalOC" : 0.0,
"totalRC" : 0.0,
"previousTotalRC" : 0.0,
"originalTotalOC" : 0.0,
"discountTotalOC" : 0.0,
"overrideTotalOC" : 0.0,
"taxTotalOC" : 0.0,
"originalTotalRC" : 0.0,
"discountTotalRC" : 0.0,
"taxTotalRC" : 0.0,
"proratedTotalRC" : 0.0,
"proratedDiscountTotalRC" : 0.0,
"proratedTaxTotalRC" : 0.0,
"previousTaxTotalRC" : 0.0
},
"assignedProducID" : 11247280580,
"serviceID" : 11247280580,
"catalogProductID" : 4111389,
"catalogProductCod" : "Mobile_Framework_Agreement_GLP_Main",
"catalogProductName" : "Mobile Framework Agreement GLP Main",
"itemActionType" : "N",
"actionType" : "AD",
"offerName" : "Mobile Framework Agreement Offer"
} ],
"assignedOfferID" : 11247280579,
"offerName" : "Mobile Framework Agreement Offer",
"availableOffer" : {
"catalogOffer" : {
"catalogOfferID" : {
"orderID" : 4153219
}
},
"childAvailableProducts" : [ {
"availableProductID" : 4153239
} ]
}
},
"orderActionSummary" : [ {
"implementedProduct" : {
"childImplementedProducts" : [ {
"implementedAttributes" : [ {
"catalogAttribute" : {
"catalogAttributeID" : 9122579,
"catalogAttributeDetails" : {
"name" : "Contract Offer Group",
"description" : "Offer group as agreed in the Contract",
"affectsPrice" : false,
"isVisible" : false,
"attributeDataType" : {
"name" : "AbsString",
"attributeDataTypeDetails" : {
"dataType" : 1,
"type" : 0,
"dataSize" : 256
}
},
"propertyNameX1" : "Contract_Offer_Group"
}
},
"selectedValue" : "All Groups"
}, {
"catalogAttribute" : {
"catalogAttributeID" : 4110339,
"catalogAttributeDetails" : {
"name" : "Contract Nummer",
"description" : "Bevat het nummer van het contract welke gebruikt wordt als Service ID voor het enterprise product",
"affectsPrice" : false,
"isVisible" : false,
"attributeDataType" : {
"name" : "AbsString",
"attributeDataTypeDetails" : {
"dataType" : 1,
"type" : 0,
"dataSize" : 256
}
},
"propertyNameX1" : "Contract_Number"
}
},
"selectedValue" : "VZ-2020-00007461"
}, {
"catalogAttribute" : {
"catalogAttributeID" : 4110959,
"catalogAttributeDetails" : {
"name" : "Contract Type",
"description" : "Geeft aan of het contract Acquisitie of Retentie is. Attribuut wordt gebruikt voor 3TM reporting.",
"affectsPrice" : false,
"isVisible" : false,
"attributeDataType" : {
"name" : "AbsContractType_Framework",
"attributeDataTypeDetails" : {
"dataType" : 1,
"type" : 2,
"dataSize" : 256,
"validValues" : [ {
"code" : "Acquisition",
"name" : "Acquisition"
}, {
"code" : "Retention",
"name" : "Retention"
} ]
}
},
"propertyNameX1" : "Contract_Type"
}
},
"selectedValue" : "Acquisition"
}, {
"catalogAttribute" : {
"catalogAttributeID" : 4110359,
"catalogAttributeDetails" : {
"name" : "Contract URL link",
"description" : "Contains link to the contract document URL.",
"affectsPrice" : false,
"isVisible" : false,
"attributeDataType" : {
"name" : "AbsString",
"attributeDataTypeDetails" : {
"dataType" : 1,
"type" : 0,
"dataSize" : 256
}
},
"propertyNameX1" : "Contract_URL_Link"
}
}
}, {
"catalogAttribute" : {
"catalogAttributeID" : 687065,
"catalogAttributeDetails" : {
"name" : "Contract Commencement Date",
"description" : "Datum waarop contract ondertekend is",
"affectsPrice" : false,
"isVisible" : false,
"attributeDataType" : {
"name" : "AbsDate",
"attributeDataTypeDetails" : {
"dataType" : 3,
"type" : 0,
"dataSize" : 256
}
},
"propertyNameX1" : "Contract_Sign_Date"
}
},
"selectedValue" : "07/20/2020 00:00:00"
}, {
"catalogAttribute" : {
"catalogAttributeID" : 4110349,
"catalogAttributeDetails" : {
"name" : "Contract Omschrijving",
"description" : "Free text veld voor contract omschrijving. De omschrijving wordt weergegeven wanneer een gebruiker wordt toegevoegd aan een framework agreement.",
"affectsPrice" : false,
"isVisible" : false,
"attributeDataType" : {
"name" : "AbsString",
"attributeDataTypeDetails" : {
"dataType" : 1,
"type" : 0,
"dataSize" : 256
}
},
"propertyNameX1" : "Contract_Description"
}
},
"selectedValue" : "2020-07-452948 + 24 Months"
}, {
"catalogAttribute" : {
"catalogAttributeID" : 4110329,
"catalogAttributeDetails" : {
"name" : "Document Type",
"description" : "Describes the type of the document.",
"affectsPrice" : false,
"defaultValue" : "Agreement",
"isVisible" : false,
"attributeDataType" : {
"name" : "AbsContractDocumentType",
"attributeDataTypeDetails" : {
"dataType" : 1,
"type" : 2,
"dataSize" : 256,
"validValues" : [ {
"code" : "Addendum",
"name" : "Addendum"
}, {
"code" : "Agreement",
"name" : "Agreement"
}, {
"code" : "Framework",
"name" : "Framework"
} ]
}
},
"propertyNameX1" : "Document_Type"
}
},
"selectedValue" : "Agreement"
}, {
"catalogAttribute" : {
"catalogAttributeID" : 4110539,
"catalogAttributeDetails" : {
"name" : "Benchmark Due Date",
"description" : "Contains the agreed date for performing the benchmark validation",
"affectsPrice" : false,
"isVisible" : false,
"attributeDataType" : {
"name" : "AbsDate",
"attributeDataTypeDetails" : {
"dataType" : 3,
"type" : 0,
"dataSize" : 256
}
},
"propertyNameX1" : "Benchmark_Due_Date"
}
}
}, {
"catalogAttribute" : {
"catalogAttributeID" : 4110369,
"catalogAttributeDetails" : {
"name" : "Contract SLA",
"description" : "Indicatie van Contract Service Level Agreement voor Enterprise",
"affectsPrice" : false,
"defaultValue" : "None",
"isVisible" : false,
"attributeDataType" : {
"name" : "AbsServiceLevel",
"attributeDataTypeDetails" : {
"dataType" : 1,
"type" : 2,
"dataSize" : 256,
"validValues" : [ {
"code" : "BNZE",
"name" : "Bronze"
}, {
"code" : "GOLD",
"name" : "Gold"
}, {
"code" : "None",
"name" : "None"
}, {
"code" : "SILV",
"name" : "Silver"
}, {
"code" : "Standard",
"name" : "Standard"
} ]
}
},
"propertyNameX1" : "Contract_SLA"
}
},
"selectedValue" : "None"
}, {
"catalogAttribute" : {
"catalogAttributeID" : 4110969,
"catalogAttributeDetails" : {
"name" : "SLA Description",
"description" : "Free text voor weergave van het overeengekomen framework SLA level. Text wordt in SFDC vastgelegd tijdens het aanmaken van het contract",
"affectsPrice" : false,
"isVisible" : false,
"attributeDataType" : {
"name" : "AbsString",
"attributeDataTypeDetails" : {
"dataType" : 1,
"type" : 0,
"dataSize" : 256
}
},
"propertyNameX1" : "SLA_Description"
}
}
}, {
"catalogAttribute" : {
"catalogAttributeID" : 4110399,
"catalogAttributeDetails" : {
"name" : "Number of active subscriptions exceed the contract",
"description" : "Contains the additional number of active subscriber that can be added on top of the 'Minimum number of active subscriptions' without a need to set a new contract",
"affectsPrice" : false,
"isVisible" : false,
"attributeDataType" : {
"name" : "AbsRangePositive",
"attributeDataTypeDetails" : {
"dataType" : 4,
"type" : 1,
"dataSize" : 10,
"ranges" : [ {
"minimum" : 1.0,
"maximum" : 99999.0
} ]
}
},
"propertyNameX1" : "Number_of_active_subscriptions_exceed_the_contract"
}
}
}, {
"catalogAttribute" : {
"catalogAttributeID" : 4110529,
"catalogAttributeDetails" : {
"name" : "Benchmark Possibility",
"description" : "Indicates whether to check that prices are still competitive and change to a better pricing scheme if they are not",
"affectsPrice" : false,
"isVisible" : false,
"attributeDataType" : {
"name" : "AbsBenchmarkPossibility",
"attributeDataTypeDetails" : {
"dataType" : 1,
"type" : 2,
"dataSize" : 256,
"validValues" : [ {
"code" : "Bespoke",
"name" : "Bespoke"
}, {
"code" : "External",
"name" : "External"
}, {
"code" : "Internal",
"name" : "Internal"
} ]
}
},
"propertyNameX1" : "Benchmark_Possibility"
}
}
}, {
"catalogAttribute" : {
"catalogAttributeID" : 4110409,
"catalogAttributeDetails" : {
"name" : "Number of active subscribers that can be cancelled",
"description" : "Contains the total number of subscribers that can be cancelled without triggering a penalty",
"affectsPrice" : false,
"isVisible" : false,
"attributeDataType" : {
"name" : "AbsRangePositive",
"attributeDataTypeDetails" : {
"dataType" : 4,
"type" : 1,
"dataSize" : 10,
"ranges" : [ {
"minimum" : 1.0,
"maximum" : 99999.0
} ]
}
},
"propertyNameX1" : "Number_of_active_subscribers_that_can_be_cancelled"
}
}
}, {
"catalogAttribute" : {
"catalogAttributeID" : 7339153,
"catalogAttributeDetails" : {
"name" : "Active subscribers that can be cancelled unit type",
"description" : "Contains the unit type of subscribers that can be cancelled without triggering a penalty.",
"affectsPrice" : false,
"defaultValue" : "NUMBER",
"isVisible" : false,
"attributeDataType" : {
"name" : "DynSubscribers_Definition_on_FWA",
"attributeDataTypeDetails" : {
"dataType" : 1,
"type" : 2,
"dataSize" : 256,
"validValues" : [ {
"code" : "NUMBER",
"name" : "Number"
}, {
"code" : "PERCENTAGE",
"name" : "Percentage"
} ]
}
},
"propertyNameX1" : "Active_subscribers_for_cancelled_unit_type"
}
},
"selectedValue" : "NUMBER"
}, {
"catalogAttribute" : {
"catalogAttributeID" : 7339183,
"catalogAttributeDetails" : {
"name" : "Maximum of suspended subscriptions Product name 1",
"description" : "Free text attribute Contains the product name of the agreed number of suspended subscriptions that corporate committed to purchase.",
"affectsPrice" : false,
"isVisible" : false,
"attributeDataType" : {
"name" : "DynProductNameForSuspendedSubscription",
"attributeDataTypeDetails" : {
"dataType" : 1,
"type" : 2,
"dataSize" : 256,
"validValues" : [ {
"code" : "ALL_PRODUCTS",
"name" : "All products"
}, {
"code" : "BlackBerry",
"name" : "BlackBerry"
}, {
"code" : "DATA_ON_VOICE",
"name" : "Data on voice"
}, {
"code" : "M2M",
"name" : "M2M"
}, {
"code" : "MOBILE_BROADBAND",
"name" : "Mobile Broadband"
}, {
"code" : "VOICE",
"name" : "Voice"
} ]
}
},
"propertyNameX1" : "Maximum_suspended_subscriptions_Product_name_1"
}
}
}, {
"catalogAttribute" : {
"catalogAttributeID" : 7339673,
"catalogAttributeDetails" : {
"name" : "Maximum of suspended subscriptions 1",
"description" : "Contains the agreed suspended subscriptions that corporate committed to purchase.",
"affectsPrice" : false,
"isVisible" : false,
"attributeDataType" : {
"name" : "AbsRangePositive",
"attributeDataTypeDetails" : {
"dataType" : 4,
"type" : 1,
"dataSize" : 10,
"ranges" : [ {
"minimum" : 1.0,
"maximum" : 99999.0
} ]
}
},
"propertyNameX1" : "Maximum_number_of_suspended_subscriptions_1"
}
}
}, {
"catalogAttribute" : {
"catalogAttributeID" : 7339173,
"catalogAttributeDetails" : {
"name" : "Maximum of suspended subscriptions Unit Type 1",
"description" : "Contains the unit type of the agreed number of suspended subscriptions that corporate committed to purchase.",
"affectsPrice" : false,
"defaultValue" : "NUMBER",
"isVisible" : false,
"attributeDataType" : {
"name" : "DynSubscribers_Definition_on_FWA",
"attributeDataTypeDetails" : {
"dataType" : 1,
"type" : 2,
"dataSize" : 256,
"validValues" : [ {
"code" : "NUMBER",
"name" : "Number"
}, {
"code" : "PERCENTAGE",
"name" : "Percentage"
} ]
}
},
"propertyNameX1" : "Maximum_of_suspended_subscriptions_Unit_Type_1"
}
},
"selectedValue" : "NUMBER"
}, {
"catalogAttribute" : {
"catalogAttributeID" : 7339213,
"catalogAttributeDetails" : {
"name" : "Maximum of suspended subscriptions Product name 2",
"description" : "Contains the product name of the agreed number of suspended subscriptions that corporate committed to purchase.",
"affectsPrice" : false,
"isVisible" : false,
"attributeDataType" : {
"name" : "DynProductNameForSuspendedSubscription",
"attributeDataTypeDetails" : {
"dataType" : 1,
"type" : 2,
"dataSize" : 256,
"validValues" : [ {
"code" : "ALL_PRODUCTS",
"name" : "All products"
}, {
"code" : "BlackBerry",
"name" : "BlackBerry"
}, {
"code" : "DATA_ON_VOICE",
"name" : "Data on voice"
}, {
"code" : "M2M",
"name" : "M2M"
}, {
"code" : "MOBILE_BROADBAND",
"name" : "Mobile Broadband"
}, {
"code" : "VOICE",
"name" : "Voice"
} ]
}
},
"propertyNameX1" : "Maximum_suspended_subscriptions_Product_name_2"
}
}
}, {
"catalogAttribute" : {
"catalogAttributeID" : 7339193,
"catalogAttributeDetails" : {
"name" : "Maximum of suspended subscriptions 2",
"description" : "Contains the agreed suspended subscriptions that corporate committed to purchase.",
"affectsPrice" : false,
"isVisible" : false,
"attributeDataType" : {
"name" : "AbsRangePositive",
"attributeDataTypeDetails" : {
"dataType" : 4,
"type" : 1,
"dataSize" : 10,
"ranges" : [ {
"minimum" : 1.0,
"maximum" : 99999.0
} ]
}
},
"propertyNameX1" : "Maximum_number_of_suspended_subscriptions_2"
}
}
}, {
"catalogAttribute" : {
"catalogAttributeID" : 7339203,
"catalogAttributeDetails" : {
"name" : "Maximum of suspended subscriptions Unit Type 2",
"description" : "Contains the unit type of the agreed number of suspended subscriptions that corporate committed to purchase.",
"affectsPrice" : false,
"defaultValue" : "NUMBER",
"isVisible" : false,
"attributeDataType" : {
"name" : "DynSubscribers_Definition_on_FWA",
"attributeDataTypeDetails" : {
"dataType" : 1,
"type" : 2,
"dataSize" : 256,
"validValues" : [ {
"code" : "NUMBER",
"name" : "Number"
}, {
"code" : "PERCENTAGE",
"name" : "Percentage"
} ]
}
},
"propertyNameX1" : "Maximum_of_suspended_subscriptions_Unit_Type_2"
}
},
"selectedValue" : "NUMBER"
}, {
"catalogAttribute" : {
"catalogAttributeID" : 7339243,
"catalogAttributeDetails" : {
"name" : "Maximum of suspended subscriptions Product name 3",
"description" : "Contains the product name of the agreed number of suspended subscriptions that corporate committed to purchase.",
"affectsPrice" : false,
"isVisible" : false,
"attributeDataType" : {
"name" : "DynProductNameForSuspendedSubscription",
"attributeDataTypeDetails" : {
"dataType" : 1,
"type" : 2,
"dataSize" : 256,
"validValues" : [ {
"code" : "ALL_PRODUCTS",
"name" : "All products"
}, {
"code" : "BlackBerry",
"name" : "BlackBerry"
}, {
"code" : "DATA_ON_VOICE",
"name" : "Data on voice"
}, {
"code" : "M2M",
"name" : "M2M"
}, {
"code" : "MOBILE_BROADBAND",
"name" : "Mobile Broadband"
}, {
"code" : "VOICE",
"name" : "Voice"
} ]
}
},
"propertyNameX1" : "Maximum_suspended_subscriptions_Product_name_3"
}
}
}, {
"catalogAttribute" : {
"catalogAttributeID" : 7339223,
"catalogAttributeDetails" : {
"name" : "Maximum of suspended subscriptions 3",
"description" : "Contains the agreed suspended subscriptions that corporate committed to purchase.",
"affectsPrice" : false,
"isVisible" : false,
"attributeDataType" : {
"name" : "AbsRangePositive",
"attributeDataTypeDetails" : {
"dataType" : 4,
"type" : 1,
"dataSize" : 10,
"ranges" : [ {
"minimum" : 1.0,
"maximum" : 99999.0
} ]
}
},
"propertyNameX1" : "Maximum_number_of_suspended_subscriptions_3"
}
}
}, {
"catalogAttribute" : {
"catalogAttributeID" : 7339233,
"catalogAttributeDetails" : {
"name" : "Maximum of suspended subscriptions Unit Type 3",
"description" : "Contains the unit type of the agreed number of suspended subscriptions that corporate committed to purchase.",
"affectsPrice" : false,
"defaultValue" : "NUMBER",
"isVisible" : false,
"attributeDataType" : {
"name" : "DynSubscribers_Definition_on_FWA",
"attributeDataTypeDetails" : {
"dataType" : 1,
"type" : 2,
"dataSize" : 256,
"validValues" : [ {
"code" : "NUMBER",
"name" : "Number"
}, {
"code" : "PERCENTAGE",
"name" : "Percentage"
} ]
}
},
"propertyNameX1" : "Maximum_of_suspended_subscriptions_Unit_Type_3"
}
},
"selectedValue" : "NUMBER"
}, {
"catalogAttribute" : {
"catalogAttributeID" : 7339273,
"catalogAttributeDetails" : {
"name" : "Maximum of suspended subscriptions Product name 4",
"description" : "Contains the product name of the agreed number of suspended subscriptions that corporate committed to purchase.",
"affectsPrice" : false,
"isVisible" : false,
"attributeDataType" : {
"name" : "DynProductNameForSuspendedSubscription",
"attributeDataTypeDetails" : {
"dataType" : 1,
"type" : 2,
"dataSize" : 256,
"validValues" : [ {
"code" : "ALL_PRODUCTS",
"name" : "All products"
}, {
"code" : "BlackBerry",
"name" : "BlackBerry"
}, {
"code" : "DATA_ON_VOICE",
"name" : "Data on voice"
}, {
"code" : "M2M",
"name" : "M2M"
}, {
"code" : "MOBILE_BROADBAND",
"name" : "Mobile Broadband"
}, {
"code" : "VOICE",
"name" : "Voice"
} ]
}
},
"propertyNameX1" : "Maximum_suspended_subscriptions_Product_name_4"
}
}
}, {
"catalogAttribute" : {
"catalogAttributeID" : 7339253,
"catalogAttributeDetails" : {
"name" : "Maximum of suspended subscriptions 4",
"description" : "Contains the agreed suspended subscriptions that corporate committed to purchase.",
"affectsPrice" : false,
"isVisible" : false,
"attributeDataType" : {
"name" : "AbsRangePositive",
"attributeDataTypeDetails" : {
"dataType" : 4,
"type" : 1,
"dataSize" : 10,
"ranges" : [ {
"minimum" : 1.0,
"maximum" : 99999.0
} ]
}
},
"propertyNameX1" : "Maximum_number_of_suspended_subscriptions_4"
}
}
}, {
"catalogAttribute" : {
"catalogAttributeID" : 7339283,
"catalogAttributeDetails" : {
"name" : "Maximum of suspended subscriptions Unit Type 4",
"description" : "Contains the unit type of the agreed number of suspended subscriptions that corporate committed to purchase.",
"affectsPrice" : false,
"defaultValue" : "NUMBER",
"isVisible" : false,
"attributeDataType" : {
"name" : "DynSubscribers_Definition_on_FWA",
"attributeDataTypeDetails" : {
"dataType" : 1,
"type" : 2,
"dataSize" : 256,
"validValues" : [ {
"code" : "NUMBER",
"name" : "Number"
}, {
"code" : "PERCENTAGE",
"name" : "Percentage"
} ]
}
},
"propertyNameX1" : "Maximum_of_suspended_subscriptions_Unit_Type_4"
}
},
"selectedValue" : "NUMBER"
}, {
"catalogAttribute" : {
"catalogAttributeID" : 4110429,
"catalogAttributeDetails" : {
"name" : "Number of suspended subscriptions exceed the contract",
"description" : "Contains the additional number of suspended subscribers that can be added on top of the 'Minimum number of suspended subscriptions' without a need to set a new contract",
"affectsPrice" : false,
"isVisible" : false,
"attributeDataType" : {
"name" : "AbsRangePositive",
"attributeDataTypeDetails" : {
"dataType" : 4,
"type" : 1,
"dataSize" : 10,
"ranges" : [ {
"minimum" : 1.0,
"maximum" : 99999.0
} ]
}
},
"propertyNameX1" : "Number_of_suspended_subscriptions_exceed_the_contract"
}
}
}, {
"catalogAttribute" : {
"catalogAttributeID" : 4110649,
"catalogAttributeDetails" : {
"name" : "Default Shipment Method",
"description" : "Contains the default shipping method that should be set when ordering goods via Mobile License & equipment",
"affectsPrice" : false,
"isVisible" : false,
"attributeDataType" : {
"name" : "AbsShipmentChargeArticle",
"attributeDataTypeDetails" : {
"dataType" : 1,
"type" : 2,
"dataSize" : 256,
"validValues" : [ {
"code" : 110000371,
"name" : "Buitenland"
}, {
"code" : 110000357,
"name" : "Express"
}, {
"code" : 110000356,
"name" : "Standard"
} ]
}
},
"propertyNameX1" : "Default_Shipment_Method"
}
}
}, {
"catalogAttribute" : {
"catalogAttributeID" : 4110509,
"catalogAttributeDetails" : {
"name" : "Deviations General Conditions",
"description" : "Free text attribute capturing legal conditions as the price indexation (= inflation correction)",
"affectsPrice" : false,
"isVisible" : false,
"attributeDataType" : {
"name" : "AbsString",
"attributeDataTypeDetails" : {
"dataType" : 1,
"type" : 0,
"dataSize" : 256
}
},
"propertyNameX1" : "Deviations_General_Conditions"
}
}
}, {
"catalogAttribute" : {
"catalogAttributeID" : 4110599,
"catalogAttributeDetails" : {
"name" : "Fair Usage Policy Ind",
"description" : "Fair Usage Policy is the minimum consumption a user must have. The attribute indicates whether fair usage conditions were set.",
"affectsPrice" : false,
"isVisible" : false,
"attributeDataType" : {
"name" : "AbsYesNo",
"attributeDataTypeDetails" : {
"dataType" : 1,
"type" : 2,
"dataSize" : 256,
"validValues" : [ {
"code" : "Yes",
"name" : "Ja"
}, {
"code" : "No",
"name" : "Nee"
} ]
}
},
"propertyNameX1" : "Fair_Usage_Policy_Ind"
}
}
}, {
"catalogAttribute" : {
"catalogAttributeID" : 4110619,
"catalogAttributeDetails" : {
"name" : "Is BTG Discount eligible",
"description" : "Indicates whether the corporate is part of BTG and eligible for additional BTG discount",
"affectsPrice" : false,
"isVisible" : false,
"attributeDataType" : {
"name" : "AbsYesNo",
"attributeDataTypeDetails" : {
"dataType" : 1,
"type" : 2,
"dataSize" : 256,
"validValues" : [ {
"code" : "Yes",
"name" : "Ja"
}, {
"code" : "No",
"name" : "Nee"
} ]
}
},
"propertyNameX1" : "Is_BTG_Discount_eligible"
}
}
}, {
"catalogAttribute" : {
"catalogAttributeID" : 4110609,
"catalogAttributeDetails" : {
"name" : "Is Device Return",
"description" : "Indicates if device should be returned once subscriber is ceased or device is cancelled",
"affectsPrice" : false,
"isVisible" : false,
"attributeDataType" : {
"name" : "AbsYesNo",
"attributeDataTypeDetails" : {
"dataType" : 1,
"type" : 2,
"dataSize" : 256,
"validValues" : [ {
"code" : "Yes",
"name" : "Ja"
}, {
"code" : "No",
"name" : "Nee"
} ]
}
},
"propertyNameX1" : "Is_Device_Return"
}
}
}, {
"catalogAttribute" : {
"catalogAttributeID" : 4110629,
"catalogAttributeDetails" : {
"name" : "Is eligible to purchase device outside of framework",
"description" : "Indicate if chooser can order device without selecting framework agreement",
"affectsPrice" : false,
"defaultValue" : "No",
"isVisible" : false,
"attributeDataType" : {
"name" : "AbsYesNo",
"attributeDataTypeDetails" : {
"dataType" : 1,
"type" : 2,
"dataSize" : 256,
"validValues" : [ {
"code" : "Yes",
"name" : "Ja"
}, {
"code" : "No",
"name" : "Nee"
} ]
}
},
"propertyNameX1" : "Is_eligible_to_purchase_device_outside_of_framework"
}
},
"selectedValue" : "No"
}, {
"catalogAttribute" : {
"catalogAttributeID" : 4110559,
"catalogAttributeDetails" : {
"name" : "Contractual Bonus Due Date 1",
"description" : "Contains the date on which the contractual bonus should be applied",
"affectsPrice" : false,
"isVisible" : false,
"attributeDataType" : {
"name" : "AbsDate",
"attributeDataTypeDetails" : {
"dataType" : 3,
"type" : 0,
"dataSize" : 256
}
},
"propertyNameX1" : "Contractual_Bonus_Due_Date_1"
}
}
}, {
"catalogAttribute" : {
"catalogAttributeID" : 4472299,
"catalogAttributeDetails" : {
"name" : "Contractual Bonus Due Date 2",
"description" : "Contains the date on which the contractual bonus should be applied",
"affectsPrice" : false,
"isVisible" : false,
"attributeDataType" : {
"name" : "AbsDate",
"attributeDataTypeDetails" : {
"dataType" : 3,
"type" : 0,
"dataSize" : 256
}
},
"propertyNameX1" : "Contractual_Bonus_Due_Date_2"
}
}
}, {
"catalogAttribute" : {
"catalogAttributeID" : 4472259,
"catalogAttributeDetails" : {
"name" : "Contractual Bonus Due Date 3",
"description" : "Contains the date on which the contractual bonus should be applied",
"affectsPrice" : false,
"isVisible" : false,
"attributeDataType" : {
"name" : "AbsDate",
"attributeDataTypeDetails" : {
"dataType" : 3,
"type" : 0,
"dataSize" : 256
}
},
"propertyNameX1" : "Contractual_Bonus_Due_Date_3"
}
}
}, {
"catalogAttribute" : {
"catalogAttributeID" : 4472289,
"catalogAttributeDetails" : {
"name" : "Contractual Bonus Due Date 4",
"description" : "Contains the date on which the contractual bonus should be applied",
"affectsPrice" : false,
"isVisible" : false,
"attributeDataType" : {
"name" : "AbsDate",
"attributeDataTypeDetails" : {
"dataType" : 3,
"type" : 0,
"dataSize" : 256
}
},
"propertyNameX1" : "Contractual_Bonus_Due_Date_4"
}
}
}, {
"catalogAttribute" : {
"catalogAttributeID" : 4472279,
"catalogAttributeDetails" : {
"name" : "Contractual Bonus Due Date 5",
"description" : "Contains the date on which the contractual bonus should be applied",
"affectsPrice" : false,
"isVisible" : false,
"attributeDataType" : {
"name" : "AbsDate",
"attributeDataTypeDetails" : {
"dataType" : 3,
"type" : 0,
"dataSize" : 256
}
},
"propertyNameX1" : "Contractual_Bonus_Due_Date_5"
}
}
}, {
"catalogAttribute" : {
"catalogAttributeID" : 4472269,
"catalogAttributeDetails" : {
"name" : "Contractual Bonus Due Date 6",
"description" : "Contains the date on which the contractual bonus should be applied",
"affectsPrice" : false,
"isVisible" : false,
"attributeDataType" : {
"name" : "AbsDate",
"attributeDataTypeDetails" : {
"dataType" : 3,
"type" : 0,
"dataSize" : 256
}
},
"propertyNameX1" : "Contractual_Bonus_Due_Date_6"
}
}
}, {
"catalogAttribute" : {
"catalogAttributeID" : 4111259,
"catalogAttributeDetails" : {
"name" : "Minimum Duration",
"description" : "Contains the minimum duration that subscriber should be active before can move to timeout No validation will be performed on mobile order against this attribute",
"affectsPrice" : false,
"isVisible" : false,
"attributeDataType" : {
"name" : "AbsInteger",
"attributeDataTypeDetails" : {
"dataType" : 4,
"type" : 0,
"dataSize" : 10
}
},
"propertyNameX1" : "Minimum_Duration"
}
}
}, {
"catalogAttribute" : {
"catalogAttributeID" : 4110469,
"catalogAttributeDetails" : {
"name" : "Maximum Change Order Actions",
"description" : "Contains the maximum number of supported Change order actions a user can issue free of charge",
"affectsPrice" : false,
"isVisible" : false,
"attributeDataType" : {
"name" : "AbsRangePositive",
"attributeDataTypeDetails" : {
"dataType" : 4,
"type" : 1,
"dataSize" : 10,
"ranges" : [ {
"minimum" : 1.0,
"maximum" : 99999.0
} ]
}
},
"propertyNameX1" : "Maximum_Change_Order_Actions"
}
}
}, {
"catalogAttribute" : {
"catalogAttributeID" : 4110449,
"catalogAttributeDetails" : {
"name" : "Number of subscribers that can be downgraded",
"description" : "Contains the total number of subscribers that can downgrade their plan without triggering a penalty",
"affectsPrice" : false,
"isVisible" : false,
"attributeDataType" : {
"name" : "AbsRangePositive",
"attributeDataTypeDetails" : {
"dataType" : 4,
"type" : 1,
"dataSize" : 10,
"ranges" : [ {
"minimum" : 1.0,
"maximum" : 99999.0
} ]
}
},
"propertyNameX1" : "Number_of_subscribers_that_can_be_downgraded"
}
}
}, {
"catalogAttribute" : {
"catalogAttributeID" : 4110479,
"catalogAttributeDetails" : {
"name" : "Maximum Change User contact",
"description" : "Contains the maximum number of supported Change user contacts that can take place free of charge",
"affectsPrice" : false,
"isVisible" : false,
"attributeDataType" : {
"name" : "AbsRangePositive",
"attributeDataTypeDetails" : {
"dataType" : 4,
"type" : 1,
"dataSize" : 10,
"ranges" : [ {
"minimum" : 1.0,
"maximum" : 99999.0
} ]
}
},
"propertyNameX1" : "Maximum_Change_User_contact"
}
}
}, {
"catalogAttribute" : {
"catalogAttributeID" : 4110439,
"catalogAttributeDetails" : {
"name" : "Number of subscribers that can be upgraded",
"description" : "Contains the total number of subscribers that can upgrade their plan without triggering a penalty",
"affectsPrice" : false,
"isVisible" : false,
"attributeDataType" : {
"name" : "AbsRangePositive",
"attributeDataTypeDetails" : {
"dataType" : 4,
"type" : 1,
"dataSize" : 10,
"ranges" : [ {
"minimum" : 1.0,
"maximum" : 99999.0
} ]
}
},
"propertyNameX1" : "Number_of_subscribers_that_can_be_upgraded"
}
}
}, {
"catalogAttribute" : {
"catalogAttributeID" : 4110499,
"catalogAttributeDetails" : {
"name" : "Maximum Voluntary Resume Actions",
"description" : "Contains the maximum number of supported Voluntary Resume order actions a user can issue free of charge",
"affectsPrice" : false,
"isVisible" : false,
"attributeDataType" : {
"name" : "AbsRangePositive",
"attributeDataTypeDetails" : {
"dataType" : 4,
"type" : 1,
"dataSize" : 10,
"ranges" : [ {
"minimum" : 1.0,
"maximum" : 99999.0
} ]
}
},
"propertyNameX1" : "Maximum_Voluntary_Resume_Actions"
}
}
}, {
"catalogAttribute" : {
"catalogAttributeID" : 4110459,
"catalogAttributeDetails" : {
"name" : "Number of subscribers that transfer user",
"description" : "Contains the total number of subscribers that can change their ownership to a different billing customer without triggering a penalty",
"affectsPrice" : false,
"isVisible" : false,
"attributeDataType" : {
"name" : "AbsRangePositive",
"attributeDataTypeDetails" : {
"dataType" : 4,
"type" : 1,
"dataSize" : 10,
"ranges" : [ {
"minimum" : 1.0,
"maximum" : 99999.0
} ]
}
},
"propertyNameX1" : "Number_of_subscribers_that_transfer_user"
}
}
}, {
"catalogAttribute" : {
"catalogAttributeID" : 4110489,
"catalogAttributeDetails" : {
"name" : "Maximum Voluntary Suspend Actions",
"description" : "Contains the maximum number of supported Voluntary Suspend order actions a user can issue free of charge",
"affectsPrice" : false,
"isVisible" : false,
"attributeDataType" : {
"name" : "AbsRangePositive",
"attributeDataTypeDetails" : {
"dataType" : 4,
"type" : 1,
"dataSize" : 10,
"ranges" : [ {
"minimum" : 1.0,
"maximum" : 99999.0
} ]
}
},
"propertyNameX1" : "Maximum_Voluntary_Suspend_Actions"
}
}
}, {
"catalogAttribute" : {
"catalogAttributeID" : 4110379,
"catalogAttributeDetails" : {
"name" : "Opzegtermijn",
"description" : "Contract Opzegtermijn",
"affectsPrice" : false,
"defaultValue" : 30,
"isVisible" : false,
"attributeDataType" : {
"name" : "AbsInteger",
"attributeDataTypeDetails" : {
"dataType" : 4,
"type" : 0,
"dataSize" : 10
}
},
"propertyNameX1" : "Period_of_Notice"
}
},
"selectedValue" : 30
}, {
"catalogAttribute" : {
"catalogAttributeID" : 4110549,
"catalogAttributeDetails" : {
"name" : "Contractual Bonus Ind",
"description" : "Indicates whether to apply a bonus based on corporate performance. This will be handled manually.",
"affectsPrice" : false,
"isVisible" : false,
"attributeDataType" : {
"name" : "AbsYesNo",
"attributeDataTypeDetails" : {
"dataType" : 1,
"type" : 2,
"dataSize" : 256,
"validValues" : [ {
"code" : "Yes",
"name" : "Ja"
}, {
"code" : "No",
"name" : "Nee"
} ]
}
},
"propertyNameX1" : "Contractual_Bonus_Ind"
}
}
}, {
"catalogAttribute" : {
"catalogAttributeID" : 4472159,
"catalogAttributeDetails" : {
"name" : "Payment Term",
"description" : "Attribute to capture the payment method.",
"affectsPrice" : false,
"defaultValue" : 30,
"isVisible" : false,
"attributeDataType" : {
"name" : "AbsString",
"attributeDataTypeDetails" : {
"dataType" : 1,
"type" : 0,
"dataSize" : 256
}
},
"propertyNameX1" : "Payment_Term"
}
},
"selectedValue" : 30
}, {
"catalogAttribute" : {
"catalogAttributeID" : 4110589,
"catalogAttributeDetails" : {
"name" : "Penalty Amount",
"description" : "Contains the penalty amount VF pays the corporate if VF does not meet the SLA or if it issues an incorrect invoice",
"affectsPrice" : false,
"isVisible" : false,
"attributeDataType" : {
"name" : "AbsRangePositive_PenaltyAmount",
"attributeDataTypeDetails" : {
"dataType" : 4,
"type" : 1,
"dataSize" : 10,
"ranges" : [ {
"minimum" : 1.0,
"maximum" : 9999999.0
} ]
}
},
"propertyNameX1" : "Penalty_Amount"
}
}
}, {
"catalogAttribute" : {
"catalogAttributeID" : 4110569,
"catalogAttributeDetails" : {
"name" : "Penalty Clause Agreement Description",
"description" : "Free text attribute containing the agreement details according to which VF pays a penalty to the corporate if VF does not meet the SLA or if it issues an incorrect invoice",
"affectsPrice" : false,
"isVisible" : false,
"attributeDataType" : {
"name" : "AbsString",
"attributeDataTypeDetails" : {
"dataType" : 1,
"type" : 0,
"dataSize" : 256
}
},
"propertyNameX1" : "Penalty_Clause_Agreement_Description"
}
}
}, {
"catalogAttribute" : {
"catalogAttributeID" : 4110579,
"catalogAttributeDetails" : {
"name" : "Penalty Clause Duration",
"description" : "Contains the duration, following which VF will pay a penalty to the corporate if it does not meet the SLA or issues an incorrect invoice",
"affectsPrice" : false,
"isVisible" : false,
"attributeDataType" : {
"name" : "AbsInteger",
"attributeDataTypeDetails" : {
"dataType" : 4,
"type" : 0,
"dataSize" : 10
}
},
"propertyNameX1" : "Penalty_Clause_Duration"
}
}
}, {
"catalogAttribute" : {
"catalogAttributeID" : 4110639,
"catalogAttributeDetails" : {
"name" : "Restrict Device Selection",
"description" : "Indicate to portal if chooser can select any device from the list, or only device that were defined in Device agreement component",
"affectsPrice" : false,
"defaultValue" : "No",
"isVisible" : false,
"attributeDataType" : {
"name" : "AbsYesNo",
"attributeDataTypeDetails" : {
"dataType" : 1,
"type" : 2,
"dataSize" : 256,
"validValues" : [ {
"code" : "Yes",
"name" : "Ja"
}, {
"code" : "No",
"name" : "Nee"
} ]
}
},
"propertyNameX1" : "Restrict_Device_Selection"
}
},
"selectedValue" : "No"
}, {
"catalogAttribute" : {
"catalogAttributeID" : 4110519,
"catalogAttributeDetails" : {
"name" : "SLA Benchmark Due Date",
"description" : "SLA Benchmark to set an alarm",
"affectsPrice" : false,
"isVisible" : false,
"attributeDataType" : {
"name" : "AbsDate",
"attributeDataTypeDetails" : {
"dataType" : 3,
"type" : 0,
"dataSize" : 256
}
},
"propertyNameX1" : "SLA_Benchmark_Due_Date"
}
},
"selectedValue" : "06/11/2021 00:00:00"
} ],
"productStatus" : "AC",
"totalPrices" : {
"totalOC" : 0.0,
"totalRC" : 0.0,
"previousTotalRC" : 0.0,
"originalTotalOC" : 0.0,
"discountTotalOC" : 0.0,
"overrideTotalOC" : 0.0,
"taxTotalOC" : 0.0,
"originalTotalRC" : 0.0,
"discountTotalRC" : 0.0,
"taxTotalRC" : 0.0,
"proratedTotalRC" : 0.0,
"proratedDiscountTotalRC" : 0.0,
"proratedTaxTotalRC" : 0.0,
"previousTaxTotalRC" : 0.0
},
"assignedProducID" : 11247280582,
"serviceID" : "VZ-2020-00007461",
"catalogProductID" : 4124879,
"catalogProductCod" : "Contract_Details",
"catalogProductName" : "Contract Details",
"itemActionType" : "N",
"actionType" : "AD"
}, {
"implementedAttributes" : [ {
"catalogAttribute" : {
"catalogAttributeID" : 4110849,
"catalogAttributeDetails" : {
"name" : "Block expiration date Ind",
"description" : "Als deze waarde \"Y\" is dan zal de einddatum van het contract van deze gebruiker berekend worden middels de contractsduur waardes vanuit Framework (looptijd of einddatum). Als deze waarde \"N\" is, dan zal de einddatum van het contract van deze gebruiker berekend worden middels de reguliere contractsduur waardes (looptijd of einddatum)",
"affectsPrice" : false,
"isVisible" : false,
"attributeDataType" : {
"name" : "AbsYesNo",
"attributeDataTypeDetails" : {
"dataType" : 1,
"type" : 2,
"dataSize" : 256,
"validValues" : [ {
"code" : "Yes",
"name" : "Ja"
}, {
"code" : "No",
"name" : "Nee"
} ]
}
},
"propertyNameX1" : "Block_expiration_date_Ind"
}
},
"selectedValue" : "No"
}, {
"catalogAttribute" : {
"catalogAttributeID" : 4110819,
"catalogAttributeDetails" : {
"name" : "Framework Commitment End Date",
"description" : "The commitment end date of the framework agreement",
"affectsPrice" : false,
"isVisible" : false,
"attributeDataType" : {
"name" : "AbsDate",
"attributeDataTypeDetails" : {
"dataType" : 3,
"type" : 0,
"dataSize" : 256
}
},
"propertyNameX1" : "Framework_Commitment_End_Date"
}
},
"selectedValue" : "07/31/2022 00:00:00"
}, {
"catalogAttribute" : {
"catalogAttributeID" : 4110809,
"catalogAttributeDetails" : {
"name" : "Framework Commitment Period",
"description" : "The agreed duration in which the corporate has committed to use the service",
"affectsPrice" : false,
"defaultValue" : 24,
"isVisible" : false,
"attributeDataType" : {
"name" : "DynVFCommitmentPeriod_Framework",
"attributeDataTypeDetails" : {
"dataType" : 1,
"type" : 2,
"dataSize" : 256,
"validValues" : [ {
"code" : 12,
"name" : "12 maanden"
}, {
"code" : 24,
"name" : "24 maanden"
}, {
"code" : 25,
"name" : "25 maanden"
}, {
"code" : 36,
"name" : "36 maanden"
}, {
"code" : 48,
"name" : "48 maanden"
}, {
"code" : 60,
"name" : "60 maanden"
}, {
"code" : 0,
"name" : "Geen"
} ]
}
},
"propertyNameX1" : "Framework_Commitment_Period"
}
},
"selectedValue" : 24
}, {
"catalogAttribute" : {
"catalogAttributeID" : 4110859,
"catalogAttributeDetails" : {
"name" : "Is Allow Early termination",
"description" : "Indicatie of gebruiker contract kan opzeggen op het moment dat contractsduur nog niet verstreken is. Als deze waarde \"No\" is, dan is het niet mogelijk om via Online kanaal het contract te beeindigen wanneer de contract einddatum nog niet verstreken is",
"affectsPrice" : false,
"defaultValue" : "No",
"isVisible" : false,
"attributeDataType" : {
"name" : "AbsYesNo",
"attributeDataTypeDetails" : {
"dataType" : 1,
"type" : 2,
"dataSize" : 256,
"validValues" : [ {
"code" : "Yes",
"name" : "Ja"
}, {
"code" : "No",
"name" : "Nee"
} ]
}
},
"propertyNameX1" : "Is_Allow_Early_termination"
}
},
"selectedValue" : "No"
}, {
"catalogAttribute" : {
"catalogAttributeID" : 4110839,
"catalogAttributeDetails" : {
"name" : "Subscriber Commitment End Date",
"description" : "The commitment end date that should be propagated to all corporate subscribers",
"affectsPrice" : false,
"isVisible" : false,
"attributeDataType" : {
"name" : "AbsDate",
"attributeDataTypeDetails" : {
"dataType" : 3,
"type" : 0,
"dataSize" : 256
}
},
"propertyNameX1" : "Subscriber_Commitment_End_Date"
}
}
}, {
"catalogAttribute" : {
"catalogAttributeID" : 4110829,
"catalogAttributeDetails" : {
"name" : "Subscriber Commitment Period",
"description" : "The agreed commitment duration that should be propagated to all corporate subscribers",
"affectsPrice" : false,
"defaultValue" : 24,
"isVisible" : false,
"attributeDataType" : {
"name" : "AbsVFCommitmentPeriod",
"attributeDataTypeDetails" : {
"dataType" : 1,
"type" : 2,
"dataSize" : 256,
"validValues" : [ {
"code" : 1,
"name" : "1 maand"
}, {
"code" : 108,
"name" : "108 maanden"
}, {
"code" : 12,
"name" : "12 maanden"
}, {
"code" : 120,
"name" : "120 maanden"
}, {
"code" : 21,
"name" : "21 maanden"
}, {
"code" : 22,
"name" : "22 maanden"
}, {
"code" : 24,
"name" : "24 maanden"
}, {
"code" : 25,
"name" : "25 maanden"
}, {
"code" : 27,
"name" : "27 maanden"
}, {
"code" : 36,
"name" : "36 maanden"
}, {
"code" : 37,
"name" : "37 maanden"
}, {
"code" : 48,
"name" : "48 maanden"
}, {
"code" : 58,
"name" : "58 maanden"
}, {
"code" : 6,
"name" : "6 maanden"
}, {
"code" : 60,
"name" : "60 maanden"
}, {
"code" : 72,
"name" : "72 maanden"
}, {
"code" : 84,
"name" : "84 maanden"
}, {
"code" : 96,
"name" : "96 maanden"
}, {
"code" : 0,
"name" : "Geen"
} ]
}
},
"propertyNameX1" : "Subscriber_Commitment_Period"
}
},
"selectedValue" : 24
} ],
"productStatus" : "AC",
"totalPrices" : {
"totalOC" : 0.0,
"totalRC" : 0.0,
"previousTotalRC" : 0.0,
"originalTotalOC" : 0.0,
"discountTotalOC" : 0.0,
"overrideTotalOC" : 0.0,
"taxTotalOC" : 0.0,
"originalTotalRC" : 0.0,
"discountTotalRC" : 0.0,
"taxTotalRC" : 0.0,
"proratedTotalRC" : 0.0,
"proratedDiscountTotalRC" : 0.0,
"proratedTaxTotalRC" : 0.0,
"previousTaxTotalRC" : 0.0
},
"assignedProducID" : 11247280583,
"catalogProductID" : 4137009,
"catalogProductCod" : "Framework_Commitment",
"catalogProductName" : "Framework Commitment",
"itemActionType" : "N",
"actionType" : "AD"
}, {
"productStatus" : "AC",
"totalPrices" : {
"totalOC" : 0.0,
"totalRC" : 0.0,
"previousTotalRC" : 0.0,
"originalTotalOC" : 0.0,
"discountTotalOC" : 0.0,
"overrideTotalOC" : 0.0,
"taxTotalOC" : 0.0,
"originalTotalRC" : 0.0,
"discountTotalRC" : 0.0,
"taxTotalRC" : 0.0,
"proratedTotalRC" : 0.0,
"proratedDiscountTotalRC" : 0.0,
"proratedTaxTotalRC" : 0.0,
"previousTaxTotalRC" : 0.0
},
"assignedProducID" : 11247280584,
"catalogProductID" : 735245,
"catalogProductCod" : "Group_Level_Discounts_and_Charges",
"catalogProductName" : "Groepsniveau Discounts en Charges",
"itemActionType" : "N",
"actionType" : "AD"
} ],
"implementedAttributes" : [ {
"catalogAttribute" : {
"catalogAttributeID" : 730855,
"catalogAttributeDetails" : {
"name" : "First Target Role Entity ID",
"description" : "Identificatienummer van contact rol in CRM",
"affectsPrice" : false,
"isVisible" : false,
"attributeDataType" : {
"name" : "AbsString",
"attributeDataTypeDetails" : {
"dataType" : 1,
"type" : 0,
"dataSize" : 256
}
},
"propertyNameX1" : "First_Target_Role_Entity_ID"
}
}
}, {
"catalogAttribute" : {
"catalogAttributeID" : 730205,
"catalogAttributeDetails" : {
"name" : "First Target Role Entity Type",
"description" : "Geeft aan tot welk niveau het contract behoort: Contact, Account, Customer, Subscriber, FA, BA.",
"affectsPrice" : false,
"isVisible" : false,
"attributeDataType" : {
"name" : "AbsTargetRoleEntityType",
"attributeDataTypeDetails" : {
"dataType" : 1,
"type" : 2,
"dataSize" : 256,
"validValues" : [ {
"code" : "Account",
"name" : "Account"
}, {
"code" : "BA",
"name" : "BA"
}, {
"code" : "Contact",
"name" : "Contact"
}, {
"code" : "Customer",
"name" : "Customer"
}, {
"code" : "FA",
"name" : "FA"
}, {
"code" : "Subscriber",
"name" : "Subscriber"
} ]
}
},
"propertyNameX1" : "First_Target_Role_Entity_Type"
}
}
}, {
"catalogAttribute" : {
"catalogAttributeID" : 687005,
"catalogAttributeDetails" : {
"name" : "1e verbruiksnotificatie ontvanger",
"description" : "Persoon die notificatie dient de ontvangen wanneer een bundel bijna verbruikt is, wordt gebruikt door bedrijfsadministrator",
"affectsPrice" : false,
"isVisible" : false,
"attributeDataType" : {
"name" : "AbsString",
"attributeDataTypeDetails" : {
"dataType" : 1,
"type" : 0,
"dataSize" : 256
}
},
"propertyNameX1" : "First_Target_User_Role"
}
}
}, {
"catalogAttribute" : {
"catalogAttributeID" : 4111609,
"catalogAttributeDetails" : {
"name" : "Framework Agreement Identifier",
"description" : "A number used as a unique identifier of the Framework Agreement Assigned Product",
"affectsPrice" : false,
"isVisible" : false,
"attributeDataType" : {
"name" : "DynString",
"attributeDataTypeDetails" : {
"dataType" : 1,
"type" : 0,
"dataSize" : 256
}
},
"propertyNameX1" : "Framework_Agreement_Identifier"
}
},
"selectedValue" : 11247280580
}, {
"catalogAttribute" : {
"catalogAttributeID" : 4110949,
"catalogAttributeDetails" : {
"name" : "Is Hand Over",
"description" : "Indicatie of product volledig geleverd is en of support dit in behandeling zou moeten nemen",
"affectsPrice" : false,
"defaultValue" : "No",
"isVisible" : false,
"attributeDataType" : {
"name" : "AbsYesNo",
"attributeDataTypeDetails" : {
"dataType" : 1,
"type" : 2,
"dataSize" : 256,
"validValues" : [ {
"code" : "Yes",
"name" : "Ja"
}, {
"code" : "No",
"name" : "Nee"
} ]
}
},
"propertyNameX1" : "Is_Hand_Over"
}
},
"selectedValue" : "No"
}, {
"catalogAttribute" : {
"catalogAttributeID" : 5598189,
"catalogAttributeDetails" : {
"name" : "Mobile Goods offer CID",
"description" : "Holds a linkage between Mobile framework product offering and the corresponding Mobile Goods product offering CID",
"affectsPrice" : false,
"defaultValue" : 5339059,
"isVisible" : false,
"attributeDataType" : {
"name" : "AbsInteger",
"attributeDataTypeDetails" : {
"dataType" : 4,
"type" : 0,
"dataSize" : 10
}
},
"propertyNameX1" : "Mobile_Goods_offer_CID"
}
},
"selectedValue" : 5339059
}, {
"catalogAttribute" : {
"catalogAttributeID" : 4110899,
"catalogAttributeDetails" : {
"name" : "Mobile Goods offer name",
"description" : "Holds a linkage between Mobile framework product offering and the corresponding Mobile Goods product offering",
"affectsPrice" : false,
"defaultValue" : "Enterprise Mobile Licenses & Equipment",
"isVisible" : false,
"attributeDataType" : {
"name" : "AbsString",
"attributeDataTypeDetails" : {
"dataType" : 1,
"type" : 0,
"dataSize" : 256
}
},
"propertyNameX1" : "Mobile_Goods_offer_name"
}
},
"selectedValue" : "Enterprise Mobile Licenses & Equipment"
}, {
"catalogAttribute" : {
"catalogAttributeID" : 127888,
"catalogAttributeDetails" : {
"name" : "PO nummer",
"description" : "Purchase Order Nummer",
"affectsPrice" : false,
"isVisible" : false,
"attributeDataType" : {
"name" : "AbsString",
"attributeDataTypeDetails" : {
"dataType" : 1,
"type" : 0,
"dataSize" : 256
}
},
"propertyNameX1" : "PO_Number"
}
}
}, {
"catalogAttribute" : {
"catalogAttributeID" : 730865,
"catalogAttributeDetails" : {
"name" : "Second Target Role Entity ID",
"description" : "Identificatienummer van contact rol in CRM",
"affectsPrice" : false,
"isVisible" : false,
"attributeDataType" : {
"name" : "AbsString",
"attributeDataTypeDetails" : {
"dataType" : 1,
"type" : 0,
"dataSize" : 256
}
},
"propertyNameX1" : "Second_Target_Role_Entity_ID"
}
}
}, {
"catalogAttribute" : {
"catalogAttributeID" : 731335,
"catalogAttributeDetails" : {
"name" : "Second Target Role Entity type",
"description" : "Geeft aan tot welk niveau het contract behoort: Contact, Account, Customer, Subscriber, FA, BA.",
"affectsPrice" : false,
"isVisible" : false,
"attributeDataType" : {
"name" : "AbsTargetRoleEntityType",
"attributeDataTypeDetails" : {
"dataType" : 1,
"type" : 2,
"dataSize" : 256,
"validValues" : [ {
"code" : "Account",
"name" : "Account"
}, {
"code" : "BA",
"name" : "BA"
}, {
"code" : "Contact",
"name" : "Contact"
}, {
"code" : "Customer",
"name" : "Customer"
}, {
"code" : "FA",
"name" : "FA"
}, {
"code" : "Subscriber",
"name" : "Subscriber"
} ]
}
},
"propertyNameX1" : "Second_Target_Role_Entity_Type"
}
}
}, {
"catalogAttribute" : {
"catalogAttributeID" : 687015,
"catalogAttributeDetails" : {
"name" : "2e verbruiksnotificatie ontvanger",
"description" : "Persoon die notificatie dient de ontvangen wanneer een bundel bijna verbruikt is, wordt gebruikt door bedrijfsadministrator",
"affectsPrice" : false,
"isVisible" : false,
"attributeDataType" : {
"name" : "AbsString",
"attributeDataTypeDetails" : {
"dataType" : 1,
"type" : 0,
"dataSize" : 256
}
},
"propertyNameX1" : "Second_Target_User_Role"
}
}
} ],
"productStatus" : "AC",
"totalPrices" : {
"totalOC" : 0.0,
"totalRC" : 0.0,
"previousTotalRC" : 0.0,
"originalTotalOC" : 0.0,
"discountTotalOC" : 0.0,
"overrideTotalOC" : 0.0,
"taxTotalOC" : 0.0,
"originalTotalRC" : 0.0,
"discountTotalRC" : 0.0,
"taxTotalRC" : 0.0,
"proratedTotalRC" : 0.0,
"proratedDiscountTotalRC" : 0.0,
"proratedTaxTotalRC" : 0.0,
"previousTaxTotalRC" : 0.0
},
"assignedProducID" : 11247280580,
"serviceID" : 11247280580,
"catalogProductID" : 4111389,
"catalogProductCod" : "Mobile_Framework_Agreement_GLP_Main",
"catalogProductName" : "Mobile Framework Agreement GLP Main",
"itemActionType" : "N",
"actionType" : "AD"
},
"orderActionType" : "PR",
"reason" : "CREQ",
"orderActionStatus" : "NE",
"serviceRequiredDate" : 1595627999000
} ]
} ],
"orderHeader" : {
"orderID" : "557462269A",
"daysToExpiration" : 14,
"applicationDate" : 1595555985000,
"expiryDate" : 1596765585000,
"orderStatus" : "EX",
"customerProfileHeader" : {
"customerName" : "OneillNetherlandsBv ITE2 EMP",
"customerID" : 800047188
},
"externalOrderID" : "a0Q5E0000052UCPUA2",
"creditVettingStatus" : "Status: APPROVED.Credit Vetting Approved",
"newPhoneNrInd" : false
},
"totalPrices" : {
"totalOC" : 0.0,
"totalRC" : 0.0,
"previousTotalRC" : 0.0,
"originalTotalOC" : 0.0,
"discountTotalOC" : 0.0,
"overrideTotalOC" : 0.0,
"taxTotalOC" : 0.0,
"originalTotalRC" : 0.0,
"discountTotalRC" : 0.0,
"taxTotalRC" : 0.0,
"proratedTotalRC" : 0.0,
"proratedDiscountTotalRC" : 0.0,
"proratedTaxTotalRC" : 0.0,
"previousTaxTotalRC" : 0.0
}
}
}
}
],"error":[]}