{
	"address": {
		"addressId": "PAID-169.423.906",
		"flatAddressId": "17261511",
		"country": "NLD",
		"city": "Steenwijk",
		"street": "Generaal",
		"houseNumber": "51",
		"houseNumberAddition": null,
		"postcode": "8333DV",
		"room": null
	},
	"cocNumber": "59300787",
	"establishDate": "2013-11-01",
	"legalForm": 2,
	"name": "RED HOT CLASSICS",
	"vatNumber": "NL123456789B99"
}
