[ 
   { 
      "attributes":{ 
         "type":"VF_Family_Tag__c",
         "url":"/services/data/v41.0/sobjects/VF_Family_Tag__c/a2657000000FYIMAA4"
      },
      "Id":"a2657000000FYIMAA4",
      "Name":"Emergency_Routing_ERS_Enterprise_Level",
      "ExternalID__c":"FT-06-ABCDEF1",
      "Family_Tag_Name2__c":"Emergency_Routing_ERS_Enterprise_Level"
   },
   { 
      "attributes":{ 
         "type":"VF_Family_Tag__c",
         "url":"/services/data/v41.0/sobjects/VF_Family_Tag__c/a2657000000FYINAA4"
      },
      "Id":"a2657000000FYINAA4",
      "Name":"IP_Alarm_ Enterprise_Level",
      "ExternalID__c":"FT-06-ABCDEF2",
      "Family_Tag_Name2__c":"IP_Alarm_ Enterprise_Level"
   },
   { 
      "attributes":{ 
         "type":"VF_Family_Tag__c",
         "url":"/services/data/v41.0/sobjects/VF_Family_Tag__c/a2657000000FYIOAA4"
      },
      "Id":"a2657000000FYIOAA4",
      "Name":"Miscellaneous_service_charging_Enterprise_Level",
      "ExternalID__c":"FT-06-ABCDEF3",
      "Family_Tag_Name2__c":"Miscellaneous_service_charging_Enterprise_Level"
   },
   { 
      "attributes":{ 
         "type":"VF_Family_Tag__c",
         "url":"/services/data/v41.0/sobjects/VF_Family_Tag__c/a2657000000FYIPAA4"
      },
      "Id":"a2657000000FYIPAA4",
      "Name":"Managed_Firewall_Enterprise_Level",
      "ExternalID__c":"FT-06-ABCDEF4",
      "Family_Tag_Name2__c":"Managed_Firewall_Enterprise_Level"
   },
   { 
      "attributes":{ 
         "type":"VF_Family_Tag__c",
         "url":"/services/data/v41.0/sobjects/VF_Family_Tag__c/a2657000000FYIQAA4"
      },
      "Id":"a2657000000FYIQAA4",
      "Name":"Ethernet_ELine_Enterprise_Level",
      "ExternalID__c":"FT-06-ABCDEF5",
      "Family_Tag_Name2__c":"Ethernet_ELine_Enterprise_Level"
   },
   { 
      "attributes":{ 
         "type":"VF_Family_Tag__c",
         "url":"/services/data/v41.0/sobjects/VF_Family_Tag__c/a2657000000FYIRAA4"
      },
      "Id":"a2657000000FYIRAA4",
      "Name":"Site_To_Site_VPN_Enterprise_Level",
      "ExternalID__c":"FT-06-ABCDEF6",
      "Family_Tag_Name2__c":"Site_To_Site_VPN_Enterprise_Level"
   },
   { 
      "attributes":{ 
         "type":"VF_Family_Tag__c",
         "url":"/services/data/v41.0/sobjects/VF_Family_Tag__c/a2657000000FYISAA4"
      },
      "Id":"a2657000000FYISAA4",
      "Name":"Ethernet_ELAN_Enterprise_Level",
      "ExternalID__c":"FT-06-ABCDEF7",
      "Family_Tag_Name2__c":"Ethernet_ELAN_Enterprise_Level"
   },
   { 
      "attributes":{ 
         "type":"VF_Family_Tag__c",
         "url":"/services/data/v41.0/sobjects/VF_Family_Tag__c/a2657000000FYITAA4"
      },
      "Id":"a2657000000FYITAA4",
      "Name":"SSL_Authentication_By_Customer_Enterprise_Level",
      "ExternalID__c":"FT-06-ABCDEF8",
      "Family_Tag_Name2__c":"SSL_Authentication_By_Customer_Enterprise_Level"
   },
   { 
      "attributes":{ 
         "type":"VF_Family_Tag__c",
         "url":"/services/data/v41.0/sobjects/VF_Family_Tag__c/a2657000000FYIUAA4"
      },
      "Id":"a2657000000FYIUAA4",
      "Name":"Mailscan_ Enterprise_Level",
      "ExternalID__c":"FT-06-ABCDEF9",
      "Family_Tag_Name2__c":"Mailscan_ Enterprise_Level"
   },
   { 
      "attributes":{ 
         "type":"VF_Family_Tag__c",
         "url":"/services/data/v41.0/sobjects/VF_Family_Tag__c/a2657000000FYIVAA4"
      },
      "Id":"a2657000000FYIVAA4",
      "Name":"IP_PIN_ Enterprise_Level",
      "ExternalID__c":"FT-06-ABCDEF10",
      "Family_Tag_Name2__c":"IP_PIN_ Enterprise_Level"
   },
   { 
      "attributes":{ 
         "type":"VF_Family_Tag__c",
         "url":"/services/data/v41.0/sobjects/VF_Family_Tag__c/a2657000000FYIWAA4"
      },
      "Id":"a2657000000FYIWAA4",
      "Name":"Tokens_ Enterprise_Level",
      "ExternalID__c":"FT-06-ABCDEF11",
      "Family_Tag_Name2__c":"Tokens_ Enterprise_Level"
   },
   { 
      "attributes":{ 
         "type":"VF_Family_Tag__c",
         "url":"/services/data/v41.0/sobjects/VF_Family_Tag__c/a2657000000FYIXAA4"
      },
      "Id":"a2657000000FYIXAA4",
      "Name":"Access_Line",
      "ExternalID__c":"FT-06-ABCDEF12",
      "Family_Tag_Name2__c":"Access_Line"
   },
   { 
      "attributes":{ 
         "type":"VF_Family_Tag__c",
         "url":"/services/data/v41.0/sobjects/VF_Family_Tag__c/a2657000000FYIYAA4"
      },
      "Id":"a2657000000FYIYAA4",
      "Name":"Additional_IP_Address",
      "ExternalID__c":"FT-06-ABCDEF13",
      "Family_Tag_Name2__c":"Additional_IP_Address"
   },
   { 
      "attributes":{ 
         "type":"VF_Family_Tag__c",
         "url":"/services/data/v41.0/sobjects/VF_Family_Tag__c/a2657000000FYIZAA4"
      },
      "Id":"a2657000000FYIZAA4",
      "Name":"Additional_SLA_Reporting",
      "ExternalID__c":"FT-06-ABCDEF14",
      "Family_Tag_Name2__c":"Additional_SLA_Reporting"
   },
   { 
      "attributes":{ 
         "type":"VF_Family_Tag__c",
         "url":"/services/data/v41.0/sobjects/VF_Family_Tag__c/a2657000000FYIHAA4"
      },
      "Id":"a2657000000FYIHAA4",
      "Name":"PBX",
      "ExternalID__c":"FT-06-ABCDEF15",
      "Family_Tag_Name2__c":"PBX"
   },
   { 
      "attributes":{ 
         "type":"VF_Family_Tag__c",
         "url":"/services/data/v41.0/sobjects/VF_Family_Tag__c/a2657000000FYIIAA4"
      },
      "Id":"a2657000000FYIIAA4",
      "Name":"SIP-ISDN Gateway PBX VPN Association",
      "ExternalID__c":"FT-06-ABCDEF16",
      "Family_Tag_Name2__c":"SIP-ISDN Gateway PBX VPN Association"
   },
   { 
      "attributes":{ 
         "type":"VF_Family_Tag__c",
         "url":"/services/data/v41.0/sobjects/VF_Family_Tag__c/a2657000000FYIJAA4"
      },
      "Id":"a2657000000FYIJAA4",
      "Name":"PBX_Number_Charging",
      "ExternalID__c":"FT-06-ABCDEF17",
      "Family_Tag_Name2__c":"PBX_Number_Charging"
   },
   { 
      "attributes":{ 
         "type":"VF_Family_Tag__c",
         "url":"/services/data/v41.0/sobjects/VF_Family_Tag__c/a2657000000FYIKAA4"
      },
      "Id":"a2657000000FYIKAA4",
      "Name":"IP_PIN_Site_Level",
      "ExternalID__c":"FT-06-ABCDEF18",
      "Family_Tag_Name2__c":"IP_PIN_Site_Level"
   },
   { 
      "attributes":{ 
         "type":"VF_Family_Tag__c",
         "url":"/services/data/v41.0/sobjects/VF_Family_Tag__c/a2657000000FYILAA4"
      },
      "Id":"a2657000000FYILAA4",
      "Name":"Service_Circuit_SIP_Channels",
      "ExternalID__c":"FT-06-ABCDEF19",
      "Family_Tag_Name2__c":"Service_Circuit_SIP_Channels"
   },
   { 
      "attributes":{ 
         "type":"VF_Family_Tag__c",
         "url":"/services/data/v41.0/sobjects/VF_Family_Tag__c/a2657000000FYIaAAO"
      },
      "Id":"a2657000000FYIaAAO",
      "Name":"CPE_SLA",
      "ExternalID__c":"FT-06-ABCDEF20",
      "Family_Tag_Name2__c":"CPE_SLA"
   },
   { 
      "attributes":{ 
         "type":"VF_Family_Tag__c",
         "url":"/services/data/v41.0/sobjects/VF_Family_Tag__c/a2657000000FYIbAAO"
      },
      "Id":"a2657000000FYIbAAO",
      "Name":"Emergency_Routing_ERS_Site_Level",
      "ExternalID__c":"FT-06-ABCDEF21",
      "Family_Tag_Name2__c":"Emergency_Routing_ERS_Site_Level"
   },
   { 
      "attributes":{ 
         "type":"VF_Family_Tag__c",
         "url":"/services/data/v41.0/sobjects/VF_Family_Tag__c/a2657000000FYIcAAO"
      },
      "Id":"a2657000000FYIcAAO",
      "Name":"Enterprise_Internet",
      "ExternalID__c":"FT-06-ABCDEF22",
      "Family_Tag_Name2__c":"Enterprise_Internet"
   },
   { 
      "attributes":{ 
         "type":"VF_Family_Tag__c",
         "url":"/services/data/v41.0/sobjects/VF_Family_Tag__c/a2657000000FYIdAAO"
      },
      "Id":"a2657000000FYIdAAO",
      "Name":"Ethernet_ELAN_Site_Level",
      "ExternalID__c":"FT-06-ABCDEF23",
      "Family_Tag_Name2__c":"Ethernet_ELAN_Site_Level"
   },
   { 
      "attributes":{ 
         "type":"VF_Family_Tag__c",
         "url":"/services/data/v41.0/sobjects/VF_Family_Tag__c/a2657000000FYIeAAO"
      },
      "Id":"a2657000000FYIeAAO",
      "Name":"Ethernet_ELine_Site_Level",
      "ExternalID__c":"FT-06-ABCDEF24",
      "Family_Tag_Name2__c":"Ethernet_ELine_Site_Level"
   },
   { 
      "attributes":{ 
         "type":"VF_Family_Tag__c",
         "url":"/services/data/v41.0/sobjects/VF_Family_Tag__c/a2657000000FYIfAAO"
      },
      "Id":"a2657000000FYIfAAO",
      "Name":"Firewall_Reporting",
      "ExternalID__c":"FT-06-ABCDEF25",
      "Family_Tag_Name2__c":"Firewall_Reporting"
   },
   { 
      "attributes":{ 
         "type":"VF_Family_Tag__c",
         "url":"/services/data/v41.0/sobjects/VF_Family_Tag__c/a2657000000FYIgAAO"
      },
      "Id":"a2657000000FYIgAAO",
      "Name":"Housing",
      "ExternalID__c":"FT-06-ABCDEF26",
      "Family_Tag_Name2__c":"Housing"
   },
   { 
      "attributes":{ 
         "type":"VF_Family_Tag__c",
         "url":"/services/data/v41.0/sobjects/VF_Family_Tag__c/a2657000000FYIhAAO"
      },
      "Id":"a2657000000FYIhAAO",
      "Name":"Internet_Site_Level",
      "ExternalID__c":"FT-06-ABCDEF27",
      "Family_Tag_Name2__c":"Internet_Site_Level"
   },
   { 
      "attributes":{ 
         "type":"VF_Family_Tag__c",
         "url":"/services/data/v41.0/sobjects/VF_Family_Tag__c/a2657000000FYIiAAO"
      },
      "Id":"a2657000000FYIiAAO",
      "Name":"IP_Alarm_Site_Level",
      "ExternalID__c":"FT-06-ABCDEF28",
      "Family_Tag_Name2__c":"IP_Alarm_Site_Level"
   },
   { 
      "attributes":{ 
         "type":"VF_Family_Tag__c",
         "url":"/services/data/v41.0/sobjects/VF_Family_Tag__c/a2657000000FYIjAAO"
      },
      "Id":"a2657000000FYIjAAO",
      "Name":"IPVPN_Site_Level",
      "ExternalID__c":"FT-06-ABCDEF29",
      "Family_Tag_Name2__c":"IPVPN_Site_Level"
   },
   { 
      "attributes":{ 
         "type":"VF_Family_Tag__c",
         "url":"/services/data/v41.0/sobjects/VF_Family_Tag__c/a2657000000FYIkAAO"
      },
      "Id":"a2657000000FYIkAAO",
      "Name":"IPVPN_Enterprise_Level",
      "ExternalID__c":"FT-06-ABCDEF30",
      "Family_Tag_Name2__c":"IPVPN_Enterprise_Level"
   },
   { 
      "attributes":{ 
         "type":"VF_Family_Tag__c",
         "url":"/services/data/v41.0/sobjects/VF_Family_Tag__c/a2657000000FYIlAAO"
      },
      "Id":"a2657000000FYIlAAO",
      "Name":"IPVPN_VOIP",
      "ExternalID__c":"FT-06-ABCDEF31",
      "Family_Tag_Name2__c":"IPVPN_VOIP"
   },
   { 
      "attributes":{ 
         "type":"VF_Family_Tag__c",
         "url":"/services/data/v41.0/sobjects/VF_Family_Tag__c/a2657000000FYImAAO"
      },
      "Id":"a2657000000FYImAAO",
      "Name":"Mailscan_Site_Level",
      "ExternalID__c":"FT-06-ABCDEF32",
      "Family_Tag_Name2__c":"Mailscan_Site_Level"
   },
   { 
      "attributes":{ 
         "type":"VF_Family_Tag__c",
         "url":"/services/data/v41.0/sobjects/VF_Family_Tag__c/a2657000000FYInAAO"
      },
      "Id":"a2657000000FYInAAO",
      "Name":"Managed_Firewall_Site_Level",
      "ExternalID__c":"FT-06-ABCDEF33",
      "Family_Tag_Name2__c":"Managed_Firewall_Site_Level"
   },
   { 
      "attributes":{ 
         "type":"VF_Family_Tag__c",
         "url":"/services/data/v41.0/sobjects/VF_Family_Tag__c/a2657000000FYIoAAO"
      },
      "Id":"a2657000000FYIoAAO",
      "Name":"Managed_LAN",
      "ExternalID__c":"FT-06-ABCDEF34",
      "Family_Tag_Name2__c":"Managed_LAN"
   },
   { 
      "attributes":{ 
         "type":"VF_Family_Tag__c",
         "url":"/services/data/v41.0/sobjects/VF_Family_Tag__c/a2657000000FYIpAAO"
      },
      "Id":"a2657000000FYIpAAO",
      "Name":"Managed_PBX",
      "ExternalID__c":"FT-06-ABCDEF35",
      "Family_Tag_Name2__c":"Managed_PBX"
   },
   { 
      "attributes":{ 
         "type":"VF_Family_Tag__c",
         "url":"/services/data/v41.0/sobjects/VF_Family_Tag__c/a2657000000FYIqAAO"
      },
      "Id":"a2657000000FYIqAAO",
      "Name":"Miscellaneous_service_charging_Site_Level",
      "ExternalID__c":"FT-06-ABCDEF36",
      "Family_Tag_Name2__c":"Miscellaneous_service_charging_Site_Level"
   },
   { 
      "attributes":{ 
         "type":"VF_Family_Tag__c",
         "url":"/services/data/v41.0/sobjects/VF_Family_Tag__c/a2657000000FYIrAAO"
      },
      "Id":"a2657000000FYIrAAO",
      "Name":"Mobile_IP_VPN",
      "ExternalID__c":"FT-06-ABCDEF37",
      "Family_Tag_Name2__c":"Mobile_IP_VPN"
   },
   { 
      "attributes":{ 
         "type":"VF_Family_Tag__c",
         "url":"/services/data/v41.0/sobjects/VF_Family_Tag__c/a2657000000FYIsAAO"
      },
      "Id":"a2657000000FYIsAAO",
      "Name":"PBX_Association_to_Mobile_VPN",
      "ExternalID__c":"FT-06-ABCDEF38",
      "Family_Tag_Name2__c":"PBX_Association_to_Mobile_VPN"
   },
   { 
      "attributes":{ 
         "type":"VF_Family_Tag__c",
         "url":"/services/data/v41.0/sobjects/VF_Family_Tag__c/a2657000000FYItAAO"
      },
      "Id":"a2657000000FYItAAO",
      "Name":"PBX_Trunking",
      "ExternalID__c":"FT-06-ABCDEF39",
      "Family_Tag_Name2__c":"PBX_Trunking"
   },
   { 
      "attributes":{ 
         "type":"VF_Family_Tag__c",
         "url":"/services/data/v41.0/sobjects/VF_Family_Tag__c/a2657000000FYIuAAO"
      },
      "Id":"a2657000000FYIuAAO",
      "Name":"Router_CPE",
      "ExternalID__c":"FT-06-ABCDEF40",
      "Family_Tag_Name2__c":"Router_CPE"
   },
   { 
      "attributes":{ 
         "type":"VF_Family_Tag__c",
         "url":"/services/data/v41.0/sobjects/VF_Family_Tag__c/a2657000000FYIvAAO"
      },
      "Id":"a2657000000FYIvAAO",
      "Name":"Secure_Internet",
      "ExternalID__c":"FT-06-ABCDEF41",
      "Family_Tag_Name2__c":"Secure_Internet"
   },
   { 
      "attributes":{ 
         "type":"VF_Family_Tag__c",
         "url":"/services/data/v41.0/sobjects/VF_Family_Tag__c/a2657000000FYIwAAO"
      },
      "Id":"a2657000000FYIwAAO",
      "Name":"Service_Circuit",
      "ExternalID__c":"FT-06-ABCDEF42",
      "Family_Tag_Name2__c":"Service_Circuit"
   },
   { 
      "attributes":{ 
         "type":"VF_Family_Tag__c",
         "url":"/services/data/v41.0/sobjects/VF_Family_Tag__c/a2657000000FYJ1AAO"
      },
      "Id":"a2657000000FYJ1AAO",
      "Name":"SSL_Authentication_By_Customer_Site_Level",
      "ExternalID__c":"FT-06-ABCDEF43",
      "Family_Tag_Name2__c":"SSL_Authentication_By_Customer_Site_Level"
   },
   { 
      "attributes":{ 
         "type":"VF_Family_Tag__c",
         "url":"/services/data/v41.0/sobjects/VF_Family_Tag__c/a2657000000FYJ2AAO"
      },
      "Id":"a2657000000FYJ2AAO",
      "Name":"Standard_Internet",
      "ExternalID__c":"FT-06-ABCDEF44",
      "Family_Tag_Name2__c":"Standard_Internet"
   },
   { 
      "attributes":{ 
         "type":"VF_Family_Tag__c",
         "url":"/services/data/v41.0/sobjects/VF_Family_Tag__c/a2657000000FYJ3AAO"
      },
      "Id":"a2657000000FYJ3AAO",
      "Name":"Static_IP_Address",
      "ExternalID__c":"FT-06-ABCDEF45",
      "Family_Tag_Name2__c":"Static_IP_Address"
   },
   { 
      "attributes":{ 
         "type":"VF_Family_Tag__c",
         "url":"/services/data/v41.0/sobjects/VF_Family_Tag__c/a2657000000FYJ4AAO"
      },
      "Id":"a2657000000FYJ4AAO",
      "Name":"Tokens_Site_Level",
      "ExternalID__c":"FT-06-ABCDEF46",
      "Family_Tag_Name2__c":"Tokens_Site_Level"
   },
   { 
      "attributes":{ 
         "type":"VF_Family_Tag__c",
         "url":"/services/data/v41.0/sobjects/VF_Family_Tag__c/a2657000000FYJ5AAO"
      },
      "Id":"a2657000000FYJ5AAO",
      "Name":"Transport_Service",
      "ExternalID__c":"FT-06-ABCDEF47",
      "Family_Tag_Name2__c":"Transport_Service"
   },
   { 
      "attributes":{ 
         "type":"VF_Family_Tag__c",
         "url":"/services/data/v41.0/sobjects/VF_Family_Tag__c/a2657000000FYIxAAO"
      },
      "Id":"a2657000000FYIxAAO",
      "Name":"Service_Circuit_Infra_SLA",
      "ExternalID__c":"FT-06-ABCDEF48",
      "Family_Tag_Name2__c":"Service_Circuit_Infra_SLA"
   },
   { 
      "attributes":{ 
         "type":"VF_Family_Tag__c",
         "url":"/services/data/v41.0/sobjects/VF_Family_Tag__c/a2657000000FYIyAAO"
      },
      "Id":"a2657000000FYIyAAO",
      "Name":"SIP_ISDN_Gateway PBX Trunking",
      "ExternalID__c":"FT-06-ABCDEF49",
      "Family_Tag_Name2__c":"SIP_ISDN_Gateway PBX Trunking"
   },
   { 
      "attributes":{ 
         "type":"VF_Family_Tag__c",
         "url":"/services/data/v41.0/sobjects/VF_Family_Tag__c/a2657000000FYIzAAO"
      },
      "Id":"a2657000000FYIzAAO",
      "Name":"Site_Services",
      "ExternalID__c":"FT-06-ABCDEF50",
      "Family_Tag_Name2__c":"Site_Services"
   },
   { 
      "attributes":{ 
         "type":"VF_Family_Tag__c",
         "url":"/services/data/v41.0/sobjects/VF_Family_Tag__c/a2657000000FYJ0AAO"
      },
      "Id":"a2657000000FYJ0AAO",
      "Name":"Site_To_Site_VPN_Site_Level",
      "ExternalID__c":"FT-06-ABCDEF51",
      "Family_Tag_Name2__c":"Site_To_Site_VPN_Site_Level"
   }
]